data/C1_LP_heatpulse_00008.txt

"Record Length",10002,"Points",0.00365999755,-0.00664047
"Sample Interval",2e-008,s,0.00366001755,-0.00472054
"Trigger Point",-182999,"Samples",0.00366003755,-0.00408057
"Trigger Time",-0.877564,s,0.00366005755,-0.00408057
,,,0.00366007755,-0.00536052
"Horizontal Offset",0.00366,s,0.00366009755,-0.00472054
,,,0.00366011755,-0.00728044
,,,0.00366013755,-0.00728044
,,,0.00366015755,-0.00728044
,,,0.00366017755,-0.00600049
,,,0.00366019755,-0.00536052
,,,0.00366021755,-0.00536052
,,,0.00366023755,-0.00472054
,,,0.00366025755,-0.00408057
,,,0.00366027755,-0.00536052
,,,0.00366029755,-0.00472054
,,,0.00366031755,-0.00472054
,,,0.00366033755,-0.00536052
,,,0.00366035755,-0.00472054
,,,0.00366037755,-0.00344059
,,,0.00366039755,-0.00280061
,,,0.00366041755,-0.00216064
,,,0.00366043755,-0.000880688
,,,0.00366045755,-0.000240713
,,,0.00366047755,-0.000240713
,,,0.00366049755,-0.000880688
,,,0.00366051755,-0.000880688
,,,0.00366053755,-0.000240713
,,,0.00366055755,-0.000240713
,,,0.00366057755,0.000399263
,,,0.00366059755,0.00167921
,,,0.00366061755,0.00103924
,,,0.00366063755,0.00103924
,,,0.00366065755,0.00103924
,,,0.00366067755,0.000399263
,,,0.00366069755,0.000399263
,,,0.00366071755,0.000399263
,,,0.00366073755,0.000399263
,,,0.00366075755,0.000399263
,,,0.00366077755,0.00103924
,,,0.00366079755,0.00103924
,,,0.00366081755,0.000399263
,,,0.00366083755,0.000399263
,,,0.00366085755,0.000399263
,,,0.00366087755,-0.000240713
,,,0.00366089755,0.00167921
,,,0.00366091755,0.00103924
,,,0.00366093755,0.00103924
,,,0.00366095755,0.00103924
,,,0.00366097755,0.00295916
,,,0.00366099755,0.00167921
,,,0.00366101755,0.00231919
,,,0.00366103755,0.00295916
,,,0.00366105755,0.00295916
,,,0.00366107755,0.00295916
,,,0.00366109755,0.00295916
,,,0.00366111755,0.00295916
,,,0.00366113755,0.00359914
,,,0.00366115755,0.00359914
,,,0.00366117755,0.00423912
,,,0.00366119755,0.00487909
,,,0.00366121755,0.00487909
,,,0.00366123755,0.00487909
,,,0.00366125755,0.00487909
,,,0.00366127755,0.00551907
,,,0.00366129755,0.00743899
,,,0.00366131755,0.00679902
,,,0.00366133755,0.00743899
,,,0.00366135755,0.00807897
,,,0.00366137755,0.00743899
,,,0.00366139755,0.00743899
,,,0.00366141755,0.00679902
,,,0.00366143755,0.00615904
,,,0.00366145755,0.00615904
,,,0.00366147755,0.00615904
,,,0.00366149755,0.00679902
,,,0.00366151755,0.00615904
,,,0.00366153755,0.00679902
,,,0.00366155755,0.00551907
,,,0.00366157755,0.00423912
,,,0.00366159755,0.00487909
,,,0.00366161755,0.00487909
,,,0.00366163755,0.00423912
,,,0.00366165755,0.00551907
,,,0.00366167755,0.00359914
,,,0.00366169755,0.00487909
,,,0.00366171755,0.00551907
,,,0.00366173755,0.00487909
,,,0.00366175755,0.00487909
,,,0.00366177755,0.00551907
,,,0.00366179755,0.00359914
,,,0.00366181755,0.00551907
,,,0.00366183755,0.00615904
,,,0.00366185755,0.00487909
,,,0.00366187755,0.00487909
,,,0.00366189755,0.00487909
,,,0.00366191755,0.00551907
,,,0.00366193755,0.00679902
,,,0.00366195755,0.00679902
,,,0.00366197755,0.00679902
,,,0.00366199755,0.00807897
,,,0.00366201755,0.00807897
,,,0.00366203755,0.00679902
,,,0.00366205755,0.00743899
,,,0.00366207755,0.00871894
,,,0.00366209755,0.00871894
,,,0.00366211755,0.00871894
,,,0.00366213755,0.0106389
,,,0.00366215755,0.00999889
,,,0.00366217755,0.0106389
,,,0.00366219755,0.0112788
,,,0.00366221755,0.0112788
,,,0.00366223755,0.0125588
,,,0.00366225755,0.0119188
,,,0.00366227755,0.0119188
,,,0.00366229755,0.0119188
,,,0.00366231755,0.0125588
,,,0.00366233755,0.0131988
,,,0.00366235755,0.0125588
,,,0.00366237755,0.0119188
,,,0.00366239755,0.0106389
,,,0.00366241755,0.0112788
,,,0.00366243755,0.0106389
,,,0.00366245755,0.00871894
,,,0.00366247755,0.00935892
,,,0.00366249755,0.00871894
,,,0.00366251755,0.00935892
,,,0.00366253755,0.00807897
,,,0.00366255755,0.00807897
,,,0.00366257755,0.00743899
,,,0.00366259755,0.00551907
,,,0.00366261755,0.00615904
,,,0.00366263755,0.00423912
,,,0.00366265755,0.00423912
,,,0.00366267755,0.00295916
,,,0.00366269755,0.00359914
,,,0.00366271755,0.00423912
,,,0.00366273755,0.00295916
,,,0.00366275755,0.00359914
,,,0.00366277755,0.00423912
,,,0.00366279755,0.00359914
,,,0.00366281755,0.00359914
,,,0.00366283755,0.00359914
,,,0.00366285755,0.00295916
,,,0.00366287755,0.00359914
,,,0.00366289755,0.00359914
,,,0.00366291755,0.00295916
,,,0.00366293755,0.00359914
,,,0.00366295755,0.00295916
,,,0.00366297755,0.00295916
,,,0.00366299755,0.00231919
,,,0.00366301755,0.00103924
,,,0.00366303755,0.00103924
,,,0.00366305755,0.000399263
,,,0.00366307755,-0.000880688
,,,0.00366309755,-0.00152066
,,,0.00366311755,-0.000880688
,,,0.00366313755,-0.00280061
,,,0.00366315755,-0.00344059
,,,0.00366317755,-0.00344059
,,,0.00366319755,-0.00472054
,,,0.00366321755,-0.00472054
,,,0.00366323755,-0.00664047
,,,0.00366325755,-0.00664047
,,,0.00366327755,-0.00664047
,,,0.00366329755,-0.00728044
,,,0.00366331755,-0.00792042
,,,0.00366333755,-0.00856039
,,,0.00366335755,-0.00856039
,,,0.00366337755,-0.00856039
,,,0.00366339755,-0.00984034
,,,0.00366341755,-0.0104803
,,,0.00366343755,-0.00984034
,,,0.00366345755,-0.00920037
,,,0.00366347755,-0.00984034
,,,0.00366349755,-0.00984034
,,,0.00366351755,-0.00920037
,,,0.00366353755,-0.00984034
,,,0.00366355755,-0.0104803
,,,0.00366357755,-0.0111203
,,,0.00366359755,-0.0124002
,,,0.00366361755,-0.0117603
,,,0.00366363755,-0.0117603
,,,0.00366365755,-0.0111203
,,,0.00366367755,-0.00984034
,,,0.00366369755,-0.00984034
,,,0.00366371755,-0.00984034
,,,0.00366373755,-0.0117603
,,,0.00366375755,-0.0130402
,,,0.00366377755,-0.0130402
,,,0.00366379755,-0.0156001
,,,0.00366381755,-0.0143202
,,,0.00366383755,-0.0156001
,,,0.00366385755,-0.0149601
,,,0.00366387755,-0.0149601
,,,0.00366389755,-0.0149601
,,,0.00366391755,-0.0162401
,,,0.00366393755,-0.0143202
,,,0.00366395755,-0.0156001
,,,0.00366397755,-0.0168801
,,,0.00366399755,-0.0188
,,,0.00366401755,-0.0213599
,,,0.00366403755,-0.0226399
,,,0.00366405755,-0.0226399
,,,0.00366407755,-0.0213599
,,,0.00366409755,-0.0188
,,,0.00366411755,-0.0168801
,,,0.00366413755,-0.0162401
,,,0.00366415755,-0.01816
,,,0.00366417755,-0.0188
,,,0.00366419755,-0.0219999
,,,0.00366421755,-0.0219999
,,,0.00366423755,-0.0219999
,,,0.00366425755,-0.0213599
,,,0.00366427755,-0.0207199
,,,0.00366429755,-0.01752
,,,0.00366431755,-0.0162401
,,,0.00366433755,-0.0168801
,,,0.00366435755,-0.01816
,,,0.00366437755,-0.01816
,,,0.00366439755,-0.0188
,,,0.00366441755,-0.01816
,,,0.00366443755,-0.0188
,,,0.00366445755,-0.01752
,,,0.00366447755,-0.0168801
,,,0.00366449755,-0.0162401
,,,0.00366451755,-0.01816
,,,0.00366453755,-0.01816
,,,0.00366455755,-0.01816
,,,0.00366457755,-0.0188
,,,0.00366459755,-0.02008
,,,0.00366461755,-0.0213599
,,,0.00366463755,-0.0219999
,,,0.00366465755,-0.0213599
,,,0.00366467755,-0.01816
,,,0.00366469755,-0.01752
,,,0.00366471755,-0.0149601
,,,0.00366473755,-0.0156001
,,,0.00366475755,-0.0188
,,,0.00366477755,-0.0213599
,,,0.00366479755,-0.0232798
,,,0.00366481755,-0.0239198
,,,0.00366483755,-0.0232798
,,,0.00366485755,-0.02008
,,,0.00366487755,-0.01752
,,,0.00366489755,-0.0162401
,,,0.00366491755,-0.0168801
,,,0.00366493755,-0.0188
,,,0.00366495755,-0.02008
,,,0.00366497755,-0.0219999
,,,0.00366499755,-0.0213599
,,,0.00366501755,-0.0207199
,,,0.00366503755,-0.01816
,,,0.00366505755,-0.01752
,,,0.00366507755,-0.0168801
,,,0.00366509755,-0.0168801
,,,0.00366511755,-0.01752
,,,0.00366513755,-0.0168801
,,,0.00366515755,-0.01816
,,,0.00366517755,-0.01752
,,,0.00366519755,-0.0168801
,,,0.00366521755,-0.0149601
,,,0.00366523755,-0.0143202
,,,0.00366525755,-0.0136802
,,,0.00366527755,-0.0149601
,,,0.00366529755,-0.0162401
,,,0.00366531755,-0.01752
,,,0.00366533755,-0.0168801
,,,0.00366535755,-0.01752
,,,0.00366537755,-0.0162401
,,,0.00366539755,-0.0149601
,,,0.00366541755,-0.0156001
,,,0.00366543755,-0.0149601
,,,0.00366545755,-0.0156001
,,,0.00366547755,-0.0162401
,,,0.00366549755,-0.0168801
,,,0.00366551755,-0.01752
,,,0.00366553755,-0.01752
,,,0.00366555755,-0.0149601
,,,0.00366557755,-0.0156001
,,,0.00366559755,-0.0149601
,,,0.00366561755,-0.0143202
,,,0.00366563755,-0.0149601
,,,0.00366565755,-0.0162401
,,,0.00366567755,-0.0162401
,,,0.00366569755,-0.0149601
,,,0.00366571755,-0.0149601
,,,0.00366573755,-0.0136802
,,,0.00366575755,-0.0130402
,,,0.00366577755,-0.0143202
,,,0.00366579755,-0.0136802
,,,0.00366581755,-0.0143202
,,,0.00366583755,-0.0124002
,,,0.00366585755,-0.0130402
,,,0.00366587755,-0.0130402
,,,0.00366589755,-0.0130402
,,,0.00366591755,-0.0117603
,,,0.00366593755,-0.0111203
,,,0.00366595755,-0.0117603
,,,0.00366597755,-0.0111203
,,,0.00366599755,-0.0117603
,,,0.00366601755,-0.0111203
,,,0.00366603755,-0.0117603
,,,0.00366605755,-0.00984034
,,,0.00366607755,-0.00984034
,,,0.00366609755,-0.00856039
,,,0.00366611755,-0.00984034
,,,0.00366613755,-0.00856039
,,,0.00366615755,-0.00920037
,,,0.00366617755,-0.0111203
,,,0.00366619755,-0.0111203
,,,0.00366621755,-0.0104803
,,,0.00366623755,-0.0111203
,,,0.00366625755,-0.00984034
,,,0.00366627755,-0.0104803
,,,0.00366629755,-0.0104803
,,,0.00366631755,-0.0117603
,,,0.00366633755,-0.0111203
,,,0.00366635755,-0.0130402
,,,0.00366637755,-0.0130402
,,,0.00366639755,-0.0130402
,,,0.00366641755,-0.0130402
,,,0.00366643755,-0.0117603
,,,0.00366645755,-0.0104803
,,,0.00366647755,-0.0111203
,,,0.00366649755,-0.0117603
,,,0.00366651755,-0.0124002
,,,0.00366653755,-0.0124002
,,,0.00366655755,-0.0130402
,,,0.00366657755,-0.0136802
,,,0.00366659755,-0.0136802
,,,0.00366661755,-0.0124002
,,,0.00366663755,-0.0104803
,,,0.00366665755,-0.00984034
,,,0.00366667755,-0.0111203
,,,0.00366669755,-0.0117603
,,,0.00366671755,-0.0130402
,,,0.00366673755,-0.0136802
,,,0.00366675755,-0.0136802
,,,0.00366677755,-0.0130402
,,,0.00366679755,-0.0117603
,,,0.00366681755,-0.0104803
,,,0.00366683755,-0.0111203
,,,0.00366685755,-0.0104803
,,,0.00366687755,-0.00984034
,,,0.00366689755,-0.0124002
,,,0.00366691755,-0.0136802
,,,0.00366693755,-0.0136802
,,,0.00366695755,-0.0143202
,,,0.00366697755,-0.0149601
,,,0.00366699755,-0.0136802
,,,0.00366701755,-0.0136802
,,,0.00366703755,-0.0143202
,,,0.00366705755,-0.0149601
,,,0.00366707755,-0.0168801
,,,0.00366709755,-0.0168801
,,,0.00366711755,-0.01752
,,,0.00366713755,-0.0168801
,,,0.00366715755,-0.01752
,,,0.00366717755,-0.01752
,,,0.00366719755,-0.0168801
,,,0.00366721755,-0.01752
,,,0.00366723755,-0.01816
,,,0.00366725755,-0.01752
,,,0.00366727755,-0.01816
,,,0.00366729755,-0.01816
,,,0.00366731755,-0.01816
,,,0.00366733755,-0.01752
,,,0.00366735755,-0.01752
,,,0.00366737755,-0.0168801
,,,0.00366739755,-0.01752
,,,0.00366741755,-0.01816
,,,0.00366743755,-0.01816
,,,0.00366745755,-0.01816
,,,0.00366747755,-0.01816
,,,0.00366749755,-0.01752
,,,0.00366751755,-0.01752
,,,0.00366753755,-0.0168801
,,,0.00366755755,-0.01752
,,,0.00366757755,-0.01752
,,,0.00366759755,-0.01816
,,,0.00366761755,-0.0168801
,,,0.00366763755,-0.01816
,,,0.00366765755,-0.01816
,,,0.00366767755,-0.0188
,,,0.00366769755,-0.0188
,,,0.00366771755,-0.01816
,,,0.00366773755,-0.0188
,,,0.00366775755,-0.02008
,,,0.00366777755,-0.02008
,,,0.00366779755,-0.0213599
,,,0.00366781755,-0.0207199
,,,0.00366783755,-0.0207199
,,,0.00366785755,-0.02008
,,,0.00366787755,-0.02008
,,,0.00366789755,-0.0207199
,,,0.00366791755,-0.0207199
,,,0.00366793755,-0.0207199
,,,0.00366795755,-0.0207199
,,,0.00366797755,-0.0219999
,,,0.00366799755,-0.0219999
,,,0.00366801755,-0.02008
,,,0.00366803755,-0.0219999
,,,0.00366805755,-0.0207199
,,,0.00366807755,-0.0213599
,,,0.00366809755,-0.02008
,,,0.00366811755,-0.0213599
,,,0.00366813755,-0.02008
,,,0.00366815755,-0.0226399
,,,0.00366817755,-0.0207199
,,,0.00366819755,-0.0207199
,,,0.00366821755,-0.0207199
,,,0.00366823755,-0.02008
,,,0.00366825755,-0.02008
,,,0.00366827755,-0.0213599
,,,0.00366829755,-0.02008
,,,0.00366831755,-0.02008
,,,0.00366833755,-0.0188
,,,0.00366835755,-0.01944
,,,0.00366837755,-0.01944
,,,0.00366839755,-0.01944
,,,0.00366841755,-0.0207199
,,,0.00366843755,-0.0207199
,,,0.00366845755,-0.0219999
,,,0.00366847755,-0.0219999
,,,0.00366849755,-0.0232798
,,,0.00366851755,-0.0251998
,,,0.00366853755,-0.0239198
,,,0.00366855755,-0.0245598
,,,0.00366857755,-0.0245598
,,,0.00366859755,-0.0251998
,,,0.00366861755,-0.0251998
,,,0.00366863755,-0.0271197
,,,0.00366865755,-0.0271197
,,,0.00366867755,-0.0283996
,,,0.00366869755,-0.0290396
,,,0.00366871755,-0.0283996
,,,0.00366873755,-0.0296796
,,,0.00366875755,-0.0290396
,,,0.00366877755,-0.0290396
,,,0.00366879755,-0.0296796
,,,0.00366881755,-0.0290396
,,,0.00366883755,-0.0290396
,,,0.00366885755,-0.0296796
,,,0.00366887755,-0.0296796
,,,0.00366889755,-0.0283996
,,,0.00366891755,-0.0277597
,,,0.00366893755,-0.0271197
,,,0.00366895755,-0.0277597
,,,0.00366897755,-0.0277597
,,,0.00366899755,-0.0290396
,,,0.00366901755,-0.0277597
,,,0.00366903755,-0.0277597
,,,0.00366905755,-0.0277597
,,,0.00366907755,-0.0264797
,,,0.00366909755,-0.0251998
,,,0.00366911755,-0.0264797
,,,0.00366913755,-0.0239198
,,,0.00366915755,-0.0245598
,,,0.00366917755,-0.0264797
,,,0.00366919755,-0.0245598
,,,0.00366921755,-0.0251998
,,,0.00366923755,-0.0251998
,,,0.00366925755,-0.0232798
,,,0.00366927755,-0.0239198
,,,0.00366929755,-0.0251998
,,,0.00366931755,-0.0264797
,,,0.00366933755,-0.0283996
,,,0.00366935755,-0.0271197
,,,0.00366937755,-0.0251998
,,,0.00366939755,-0.0226399
,,,0.00366941755,-0.02008
,,,0.00366943755,-0.01944
,,,0.00366945755,-0.0219999
,,,0.00366947755,-0.0271197
,,,0.00366949755,-0.0283996
,,,0.00366951755,-0.0309595
,,,0.00366953755,-0.0315995
,,,0.00366955755,-0.0290396
,,,0.00366957755,-0.0251998
,,,0.00366959755,-0.0232798
,,,0.00366961755,-0.0213599
,,,0.00366963755,-0.0226399
,,,0.00366965755,-0.0271197
,,,0.00366967755,-0.0277597
,,,0.00366969755,-0.0290396
,,,0.00366971755,-0.0296796
,,,0.00366973755,-0.0277597
,,,0.00366975755,-0.0251998
,,,0.00366977755,-0.0245598
,,,0.00366979755,-0.0232798
,,,0.00366981755,-0.0232798
,,,0.00366983755,-0.0245598
,,,0.00366985755,-0.0239198
,,,0.00366987755,-0.0251998
,,,0.00366989755,-0.0251998
,,,0.00366991755,-0.0232798
,,,0.00366993755,-0.0213599
,,,0.00366995755,-0.0219999
,,,0.00366997755,-0.0213599
,,,0.00366999755,-0.0213599
,,,0.00367001755,-0.0219999
,,,0.00367003755,-0.0239198
,,,0.00367005755,-0.0245598
,,,0.00367007755,-0.0245598
,,,0.00367009755,-0.0219999
,,,0.00367011755,-0.0219999
,,,0.00367013755,-0.0226399
,,,0.00367015755,-0.0219999
,,,0.00367017755,-0.0219999
,,,0.00367019755,-0.0245598
,,,0.00367021755,-0.0251998
,,,0.00367023755,-0.0277597
,,,0.00367025755,-0.0277597
,,,0.00367027755,-0.0264797
,,,0.00367029755,-0.0245598
,,,0.00367031755,-0.0239198
,,,0.00367033755,-0.0226399
,,,0.00367035755,-0.0239198
,,,0.00367037755,-0.0258397
,,,0.00367039755,-0.0264797
,,,0.00367041755,-0.0264797
,,,0.00367043755,-0.0277597
,,,0.00367045755,-0.0264797
,,,0.00367047755,-0.0245598
,,,0.00367049755,-0.0251998
,,,0.00367051755,-0.0245598
,,,0.00367053755,-0.0239198
,,,0.00367055755,-0.0264797
,,,0.00367057755,-0.0251998
,,,0.00367059755,-0.0251998
,,,0.00367061755,-0.0258397
,,,0.00367063755,-0.0245598
,,,0.00367065755,-0.0239198
,,,0.00367067755,-0.0251998
,,,0.00367069755,-0.0232798
,,,0.00367071755,-0.0232798
,,,0.00367073755,-0.0245598
,,,0.00367075755,-0.0251998
,,,0.00367077755,-0.0245598
,,,0.00367079755,-0.0258397
,,,0.00367081755,-0.0245598
,,,0.00367083755,-0.0245598
,,,0.00367085755,-0.0258397
,,,0.00367087755,-0.0245598
,,,0.00367089755,-0.0251998
,,,0.00367091755,-0.0258397
,,,0.00367093755,-0.0258397
,,,0.00367095755,-0.0271197
,,,0.00367097755,-0.0271197
,,,0.00367099755,-0.0271197
,,,0.00367101755,-0.0271197
,,,0.00367103755,-0.0277597
,,,0.00367105755,-0.0264797
,,,0.00367107755,-0.0290396
,,,0.00367109755,-0.0271197
,,,0.00367111755,-0.0258397
,,,0.00367113755,-0.0264797
,,,0.00367115755,-0.0271197
,,,0.00367117755,-0.0264797
,,,0.00367119755,-0.0303196
,,,0.00367121755,-0.0322395
,,,0.00367123755,-0.0341594
,,,0.00367125755,-0.0322395
,,,0.00367127755,-0.0296796
,,,0.00367129755,-0.0264797
,,,0.00367131755,-0.0251998
,,,0.00367133755,-0.0239198
,,,0.00367135755,-0.0239198
,,,0.00367137755,-0.0277597
,,,0.00367139755,-0.0303196
,,,0.00367141755,-0.0322395
,,,0.00367143755,-0.0309595
,,,0.00367145755,-0.0296796
,,,0.00367147755,-0.0264797
,,,0.00367149755,-0.0245598
,,,0.00367151755,-0.0258397
,,,0.00367153755,-0.0258397
,,,0.00367155755,-0.0290396
,,,0.00367157755,-0.0290396
,,,0.00367159755,-0.0283996
,,,0.00367161755,-0.0283996
,,,0.00367163755,-0.0290396
,,,0.00367165755,-0.0271197
,,,0.00367167755,-0.0277597
,,,0.00367169755,-0.0290396
,,,0.00367171755,-0.0309595
,,,0.00367173755,-0.0328795
,,,0.00367175755,-0.0322395
,,,0.00367177755,-0.0322395
,,,0.00367179755,-0.0315995
,,,0.00367181755,-0.0309595
,,,0.00367183755,-0.0303196
,,,0.00367185755,-0.0309595
,,,0.00367187755,-0.0309595
,,,0.00367189755,-0.0322395
,,,0.00367191755,-0.0341594
,,,0.00367193755,-0.0347994
,,,0.00367195755,-0.0354394
,,,0.00367197755,-0.0354394
,,,0.00367199755,-0.0328795
,,,0.00367201755,-0.0328795
,,,0.00367203755,-0.0328795
,,,0.00367205755,-0.0322395
,,,0.00367207755,-0.0335194
,,,0.00367209755,-0.0335194
,,,0.00367211755,-0.0341594
,,,0.00367213755,-0.0354394
,,,0.00367215755,-0.0341594
,,,0.00367217755,-0.0328795
,,,0.00367219755,-0.0328795
,,,0.00367221755,-0.0328795
,,,0.00367223755,-0.0322395
,,,0.00367225755,-0.0322395
,,,0.00367227755,-0.0341594
,,,0.00367229755,-0.0328795
,,,0.00367231755,-0.0341594
,,,0.00367233755,-0.0335194
,,,0.00367235755,-0.0328795
,,,0.00367237755,-0.0335194
,,,0.00367239755,-0.0341594
,,,0.00367241755,-0.0335194
,,,0.00367243755,-0.0347994
,,,0.00367245755,-0.0354394
,,,0.00367247755,-0.0354394
,,,0.00367249755,-0.0367193
,,,0.00367251755,-0.0373593
,,,0.00367253755,-0.0367193
,,,0.00367255755,-0.0367193
,,,0.00367257755,-0.0360793
,,,0.00367259755,-0.0373593
,,,0.00367261755,-0.0386392
,,,0.00367263755,-0.0379993
,,,0.00367265755,-0.0379993
,,,0.00367267755,-0.0379993
,,,0.00367269755,-0.0386392
,,,0.00367271755,-0.0379993
,,,0.00367273755,-0.0379993
,,,0.00367275755,-0.0392792
,,,0.00367277755,-0.0379993
,,,0.00367279755,-0.0399192
,,,0.00367281755,-0.0392792
,,,0.00367283755,-0.0386392
,,,0.00367285755,-0.0392792
,,,0.00367287755,-0.0392792
,,,0.00367289755,-0.0392792
,,,0.00367291755,-0.0392792
,,,0.00367293755,-0.0386392
,,,0.00367295755,-0.0386392
,,,0.00367297755,-0.0379993
,,,0.00367299755,-0.0379993
,,,0.00367301755,-0.0379993
,,,0.00367303755,-0.0373593
,,,0.00367305755,-0.0373593
,,,0.00367307755,-0.0379993
,,,0.00367309755,-0.0367193
,,,0.00367311755,-0.0386392
,,,0.00367313755,-0.0379993
,,,0.00367315755,-0.0386392
,,,0.00367317755,-0.0379993
,,,0.00367319755,-0.0386392
,,,0.00367321755,-0.0386392
,,,0.00367323755,-0.0392792
,,,0.00367325755,-0.0386392
,,,0.00367327755,-0.0392792
,,,0.00367329755,-0.0399192
,,,0.00367331755,-0.0392792
,,,0.00367333755,-0.0399192
,,,0.00367335755,-0.0405592
,,,0.00367337755,-0.0399192
,,,0.00367339755,-0.0411991
,,,0.00367341755,-0.0418391
,,,0.00367343755,-0.0411991
,,,0.00367345755,-0.0405592
,,,0.00367347755,-0.0405592
,,,0.00367349755,-0.0411991
,,,0.00367351755,-0.0411991
,,,0.00367353755,-0.0411991
,,,0.00367355755,-0.0418391
,,,0.00367357755,-0.0405592
,,,0.00367359755,-0.0424791
,,,0.00367361755,-0.0411991
,,,0.00367363755,-0.0424791
,,,0.00367365755,-0.0418391
,,,0.00367367755,-0.0418391
,,,0.00367369755,-0.0411991
,,,0.00367371755,-0.0411991
,,,0.00367373755,-0.0405592
,,,0.00367375755,-0.0405592
,,,0.00367377755,-0.0392792
,,,0.00367379755,-0.0411991
,,,0.00367381755,-0.0411991
,,,0.00367383755,-0.0405592
,,,0.00367385755,-0.0392792
,,,0.00367387755,-0.0405592
,,,0.00367389755,-0.0399192
,,,0.00367391755,-0.0405592
,,,0.00367393755,-0.0411991
,,,0.00367395755,-0.0411991
,,,0.00367397755,-0.0405592
,,,0.00367399755,-0.0418391
,,,0.00367401755,-0.0411991
,,,0.00367403755,-0.0418391
,,,0.00367405755,-0.0424791
,,,0.00367407755,-0.0424791
,,,0.00367409755,-0.0424791
,,,0.00367411755,-0.043759
,,,0.00367413755,-0.043759
,,,0.00367415755,-0.043759
,,,0.00367417755,-0.043759
,,,0.00367419755,-0.044399
,,,0.00367421755,-0.045039
,,,0.00367423755,-0.044399
