data/C1_LP_heatpulse_00015.txt

"Record Length",10002,"Points",0.0036599842,-0.0322395
"Sample Interval",2e-008,s,0.0036600042,-0.0309595
"Trigger Point",-182999,"Samples",0.0036600242,-0.0309595
"Trigger Time",-0.209811,s,0.0036600442,-0.0296796
,,,0.0036600642,-0.0328795
"Horizontal Offset",0.00365998,s,0.0036600842,-0.0335194
,,,0.0036601042,-0.0354394
,,,0.0036601242,-0.0347994
,,,0.0036601442,-0.0341594
,,,0.0036601642,-0.0335194
,,,0.0036601842,-0.0328795
,,,0.0036602042,-0.0322395
,,,0.0036602242,-0.0328795
,,,0.0036602442,-0.0341594
,,,0.0036602642,-0.0341594
,,,0.0036602842,-0.0347994
,,,0.0036603042,-0.0347994
,,,0.0036603242,-0.0341594
,,,0.0036603442,-0.0328795
,,,0.0036603642,-0.0315995
,,,0.0036603842,-0.0322395
,,,0.0036604042,-0.0309595
,,,0.0036604242,-0.0322395
,,,0.0036604442,-0.0328795
,,,0.0036604642,-0.0322395
,,,0.0036604842,-0.0303196
,,,0.0036605042,-0.0296796
,,,0.0036605242,-0.0309595
,,,0.0036605442,-0.0322395
,,,0.0036605642,-0.0322395
,,,0.0036605842,-0.0341594
,,,0.0036606042,-0.0328795
,,,0.0036606242,-0.0322395
,,,0.0036606442,-0.0303196
,,,0.0036606642,-0.0283996
,,,0.0036606842,-0.0271197
,,,0.0036607042,-0.0264797
,,,0.0036607242,-0.0290396
,,,0.0036607442,-0.0303196
,,,0.0036607642,-0.0328795
,,,0.0036607842,-0.0335194
,,,0.0036608042,-0.0322395
,,,0.0036608242,-0.0303196
,,,0.0036608442,-0.0283996
,,,0.0036608642,-0.0277597
,,,0.0036608842,-0.0277597
,,,0.0036609042,-0.0290396
,,,0.0036609242,-0.0290396
,,,0.0036609442,-0.0315995
,,,0.0036609642,-0.0322395
,,,0.0036609842,-0.0309595
,,,0.0036610042,-0.0303196
,,,0.0036610242,-0.0296796
,,,0.0036610442,-0.0290396
,,,0.0036610642,-0.0277597
,,,0.0036610842,-0.0290396
,,,0.0036611042,-0.0290396
,,,0.0036611242,-0.0283996
,,,0.0036611442,-0.0290396
,,,0.0036611642,-0.0283996
,,,0.0036611842,-0.0283996
,,,0.0036612042,-0.0277597
,,,0.0036612242,-0.0277597
,,,0.0036612442,-0.0264797
,,,0.0036612642,-0.0258397
,,,0.0036612842,-0.0251998
,,,0.0036613042,-0.0251998
,,,0.0036613242,-0.0239198
,,,0.0036613442,-0.0264797
,,,0.0036613642,-0.0245598
,,,0.0036613842,-0.0245598
,,,0.0036614042,-0.0258397
,,,0.0036614242,-0.0245598
,,,0.0036614442,-0.0245598
,,,0.0036614642,-0.0251998
,,,0.0036614842,-0.0232798
,,,0.0036615042,-0.0245598
,,,0.0036615242,-0.0251998
,,,0.0036615442,-0.0239198
,,,0.0036615642,-0.0245598
,,,0.0036615842,-0.0271197
,,,0.0036616042,-0.0258397
,,,0.0036616242,-0.0264797
,,,0.0036616442,-0.0264797
,,,0.0036616642,-0.0251998
,,,0.0036616842,-0.0245598
,,,0.0036617042,-0.0264797
,,,0.0036617242,-0.0258397
,,,0.0036617442,-0.0251998
,,,0.0036617642,-0.0264797
,,,0.0036617842,-0.0251998
,,,0.0036618042,-0.0251998
,,,0.0036618242,-0.0271197
,,,0.0036618442,-0.0239198
,,,0.0036618642,-0.0232798
,,,0.0036618842,-0.0239198
,,,0.0036619042,-0.0226399
,,,0.0036619242,-0.0226399
,,,0.0036619442,-0.0207199
,,,0.0036619642,-0.02008
,,,0.0036619842,-0.01944
,,,0.0036620042,-0.0188
,,,0.0036620242,-0.01816
,,,0.0036620442,-0.01752
,,,0.0036620642,-0.01752
,,,0.0036620842,-0.01752
,,,0.0036621042,-0.0162401
,,,0.0036621242,-0.0156001
,,,0.0036621442,-0.0162401
,,,0.0036621642,-0.0143202
,,,0.0036621842,-0.0143202
,,,0.0036622042,-0.0136802
,,,0.0036622242,-0.0143202
,,,0.0036622442,-0.0149601
,,,0.0036622642,-0.0149601
,,,0.0036622842,-0.0136802
,,,0.0036623042,-0.0162401
,,,0.0036623242,-0.0162401
,,,0.0036623442,-0.0156001
,,,0.0036623642,-0.0162401
,,,0.0036623842,-0.0188
,,,0.0036624042,-0.01944
,,,0.0036624242,-0.02008
,,,0.0036624442,-0.0188
,,,0.0036624642,-0.0188
,,,0.0036624842,-0.01944
,,,0.0036625042,-0.0188
,,,0.0036625242,-0.01816
,,,0.0036625442,-0.02008
,,,0.0036625642,-0.0207199
,,,0.0036625842,-0.0213599
,,,0.0036626042,-0.0219999
,,,0.0036626242,-0.0219999
,,,0.0036626442,-0.01944
,,,0.0036626642,-0.0213599
,,,0.0036626842,-0.02008
,,,0.0036627042,-0.02008
,,,0.0036627242,-0.0207199
,,,0.0036627442,-0.0207199
,,,0.0036627642,-0.02008
,,,0.0036627842,-0.02008
,,,0.0036628042,-0.02008
,,,0.0036628242,-0.0188
,,,0.0036628442,-0.01816
,,,0.0036628642,-0.01816
,,,0.0036628842,-0.01816
,,,0.0036629042,-0.01752
,,,0.0036629242,-0.01816
,,,0.0036629442,-0.01816
,,,0.0036629642,-0.01752
,,,0.0036629842,-0.01752
,,,0.0036630042,-0.01752
,,,0.0036630242,-0.0168801
,,,0.0036630442,-0.0168801
,,,0.0036630642,-0.01752
,,,0.0036630842,-0.01816
,,,0.0036631042,-0.0188
,,,0.0036631242,-0.0188
,,,0.0036631442,-0.01816
,,,0.0036631642,-0.0188
,,,0.0036631842,-0.01944
,,,0.0036632042,-0.01944
,,,0.0036632242,-0.02008
,,,0.0036632442,-0.01944
,,,0.0036632642,-0.0207199
,,,0.0036632842,-0.0207199
,,,0.0036633042,-0.02008
,,,0.0036633242,-0.0207199
,,,0.0036633442,-0.0207199
,,,0.0036633642,-0.02008
,,,0.0036633842,-0.01944
,,,0.0036634042,-0.02008
,,,0.0036634242,-0.01944
,,,0.0036634442,-0.02008
,,,0.0036634642,-0.02008
,,,0.0036634842,-0.0188
,,,0.0036635042,-0.0188
,,,0.0036635242,-0.01944
,,,0.0036635442,-0.01816
,,,0.0036635642,-0.0188
,,,0.0036635842,-0.0188
,,,0.0036636042,-0.0188
,,,0.0036636242,-0.01752
,,,0.0036636442,-0.01816
,,,0.0036636642,-0.01816
,,,0.0036636842,-0.0168801
,,,0.0036637042,-0.0168801
,,,0.0036637242,-0.0162401
,,,0.0036637442,-0.01752
,,,0.0036637642,-0.01752
,,,0.0036637842,-0.01816
,,,0.0036638042,-0.01752
,,,0.0036638242,-0.01752
,,,0.0036638442,-0.01752
,,,0.0036638642,-0.01752
,,,0.0036638842,-0.01752
,,,0.0036639042,-0.0188
,,,0.0036639242,-0.01816
,,,0.0036639442,-0.02008
,,,0.0036639642,-0.01944
,,,0.0036639842,-0.01944
,,,0.0036640042,-0.01944
,,,0.0036640242,-0.01944
,,,0.0036640442,-0.02008
,,,0.0036640642,-0.0207199
,,,0.0036640842,-0.01944
,,,0.0036641042,-0.01944
,,,0.0036641242,-0.0207199
,,,0.0036641442,-0.02008
,,,0.0036641642,-0.02008
,,,0.0036641842,-0.02008
,,,0.0036642042,-0.02008
,,,0.0036642242,-0.0213599
,,,0.0036642442,-0.02008
,,,0.0036642642,-0.02008
,,,0.0036642842,-0.01944
,,,0.0036643042,-0.02008
,,,0.0036643242,-0.02008
,,,0.0036643442,-0.01944
,,,0.0036643642,-0.0188
,,,0.0036643842,-0.0188
,,,0.0036644042,-0.0188
,,,0.0036644242,-0.01944
,,,0.0036644442,-0.0188
,,,0.0036644642,-0.0188
,,,0.0036644842,-0.0188
,,,0.0036645042,-0.01944
,,,0.0036645242,-0.0188
,,,0.0036645442,-0.0188
,,,0.0036645642,-0.01944
,,,0.0036645842,-0.02008
,,,0.0036646042,-0.01944
,,,0.0036646242,-0.02008
,,,0.0036646442,-0.02008
,,,0.0036646642,-0.0207199
,,,0.0036646842,-0.02008
,,,0.0036647042,-0.0219999
,,,0.0036647242,-0.0207199
,,,0.0036647442,-0.0213599
,,,0.0036647642,-0.0219999
,,,0.0036647842,-0.0219999
,,,0.0036648042,-0.0207199
,,,0.0036648242,-0.0239198
,,,0.0036648442,-0.0232798
,,,0.0036648642,-0.0251998
,,,0.0036648842,-0.0245598
,,,0.0036649042,-0.0219999
,,,0.0036649242,-0.0188
,,,0.0036649442,-0.01752
,,,0.0036649642,-0.0168801
,,,0.0036649842,-0.0188
,,,0.0036650042,-0.0207199
,,,0.0036650242,-0.0226399
,,,0.0036650442,-0.0245598
,,,0.0036650642,-0.0258397
,,,0.0036650842,-0.0226399
,,,0.0036651042,-0.0207199
,,,0.0036651242,-0.01752
,,,0.0036651442,-0.01752
,,,0.0036651642,-0.01752
,,,0.0036651842,-0.0207199
,,,0.0036652042,-0.0219999
,,,0.0036652242,-0.0226399
,,,0.0036652442,-0.0226399
,,,0.0036652642,-0.0213599
,,,0.0036652842,-0.02008
,,,0.0036653042,-0.0188
,,,0.0036653242,-0.01816
,,,0.0036653442,-0.0188
,,,0.0036653642,-0.0213599
,,,0.0036653842,-0.0207199
,,,0.0036654042,-0.0213599
,,,0.0036654242,-0.0226399
,,,0.0036654442,-0.0207199
,,,0.0036654642,-0.0213599
,,,0.0036654842,-0.0207199
,,,0.0036655042,-0.0213599
,,,0.0036655242,-0.0219999
,,,0.0036655442,-0.0232798
,,,0.0036655642,-0.0232798
,,,0.0036655842,-0.0219999
,,,0.0036656042,-0.0226399
,,,0.0036656242,-0.0219999
,,,0.0036656442,-0.0207199
,,,0.0036656642,-0.0226399
,,,0.0036656842,-0.0219999
,,,0.0036657042,-0.0226399
,,,0.0036657242,-0.0219999
,,,0.0036657442,-0.0239198
,,,0.0036657642,-0.0232798
,,,0.0036657842,-0.0264797
,,,0.0036658042,-0.0239198
,,,0.0036658242,-0.0226399
,,,0.0036658442,-0.02008
,,,0.0036658642,-0.01816
,,,0.0036658842,-0.0156001
,,,0.0036659042,-0.0162401
,,,0.0036659242,-0.0188
,,,0.0036659442,-0.02008
,,,0.0036659642,-0.0232798
,,,0.0036659842,-0.0239198
,,,0.0036660042,-0.0232798
,,,0.0036660242,-0.0213599
,,,0.0036660442,-0.01816
,,,0.0036660642,-0.01752
,,,0.0036660842,-0.0162401
,,,0.0036661042,-0.01816
,,,0.0036661242,-0.0188
,,,0.0036661442,-0.0219999
,,,0.0036661642,-0.0226399
,,,0.0036661842,-0.0219999
,,,0.0036662042,-0.0207199
,,,0.0036662242,-0.0207199
,,,0.0036662442,-0.02008
,,,0.0036662642,-0.01944
,,,0.0036662842,-0.02008
,,,0.0036663042,-0.0219999
,,,0.0036663242,-0.0226399
,,,0.0036663442,-0.0226399
,,,0.0036663642,-0.0219999
,,,0.0036663842,-0.0213599
,,,0.0036664042,-0.0207199
,,,0.0036664242,-0.02008
,,,0.0036664442,-0.0219999
,,,0.0036664642,-0.0213599
,,,0.0036664842,-0.0207199
,,,0.0036665042,-0.0213599
,,,0.0036665242,-0.02008
,,,0.0036665442,-0.01944
,,,0.0036665642,-0.02008
,,,0.0036665842,-0.02008
,,,0.0036666042,-0.02008
,,,0.0036666242,-0.02008
,,,0.0036666442,-0.02008
,,,0.0036666642,-0.01944
,,,0.0036666842,-0.01816
,,,0.0036667042,-0.01752
,,,0.0036667242,-0.01816
,,,0.0036667442,-0.01816
,,,0.0036667642,-0.01752
,,,0.0036667842,-0.01752
,,,0.0036668042,-0.0168801
,,,0.0036668242,-0.01752
,,,0.0036668442,-0.0156001
,,,0.0036668642,-0.01752
,,,0.0036668842,-0.0168801
,,,0.0036669042,-0.0168801
,,,0.0036669242,-0.0168801
,,,0.0036669442,-0.0168801
,,,0.0036669642,-0.01752
,,,0.0036669842,-0.0162401
,,,0.0036670042,-0.0162401
,,,0.0036670242,-0.0168801
,,,0.0036670442,-0.01752
,,,0.0036670642,-0.01752
,,,0.0036670842,-0.01816
,,,0.0036671042,-0.0168801
,,,0.0036671242,-0.01816
,,,0.0036671442,-0.01752
,,,0.0036671642,-0.01752
,,,0.0036671842,-0.0188
,,,0.0036672042,-0.0168801
,,,0.0036672242,-0.01752
,,,0.0036672442,-0.01816
,,,0.0036672642,-0.01816
,,,0.0036672842,-0.01816
,,,0.0036673042,-0.01752
,,,0.0036673242,-0.0162401
,,,0.0036673442,-0.0162401
,,,0.0036673642,-0.0162401
,,,0.0036673842,-0.0168801
,,,0.0036674042,-0.0162401
,,,0.0036674242,-0.0162401
,,,0.0036674442,-0.0156001
,,,0.0036674642,-0.0162401
,,,0.0036674842,-0.0156001
,,,0.0036675042,-0.0156001
,,,0.0036675242,-0.0149601
,,,0.0036675442,-0.0143202
,,,0.0036675642,-0.0149601
,,,0.0036675842,-0.0143202
,,,0.0036676042,-0.0143202
,,,0.0036676242,-0.0136802
,,,0.0036676442,-0.0117603
,,,0.0036676642,-0.0130402
,,,0.0036676842,-0.0136802
,,,0.0036677042,-0.0136802
,,,0.0036677242,-0.0149601
,,,0.0036677442,-0.0149601
,,,0.0036677642,-0.0149601
,,,0.0036677842,-0.0143202
,,,0.0036678042,-0.0136802
,,,0.0036678242,-0.0143202
,,,0.0036678442,-0.0156001
,,,0.0036678642,-0.0156001
,,,0.0036678842,-0.0162401
,,,0.0036679042,-0.01752
,,,0.0036679242,-0.0162401
,,,0.0036679442,-0.0156001
,,,0.0036679642,-0.0156001
,,,0.0036679842,-0.0143202
,,,0.0036680042,-0.0149601
,,,0.0036680242,-0.0162401
,,,0.0036680442,-0.0162401
,,,0.0036680642,-0.0168801
,,,0.0036680842,-0.0168801
,,,0.0036681042,-0.0156001
,,,0.0036681242,-0.0143202
,,,0.0036681442,-0.0149601
,,,0.0036681642,-0.0136802
,,,0.0036681842,-0.0136802
,,,0.0036682042,-0.0143202
,,,0.0036682242,-0.0149601
,,,0.0036682442,-0.0149601
,,,0.0036682642,-0.0149601
,,,0.0036682842,-0.0136802
,,,0.0036683042,-0.0143202
,,,0.0036683242,-0.0136802
,,,0.0036683442,-0.0124002
,,,0.0036683642,-0.0117603
,,,0.0036683842,-0.0130402
,,,0.0036684042,-0.0117603
,,,0.0036684242,-0.0130402
,,,0.0036684442,-0.0117603
,,,0.0036684642,-0.0130402
,,,0.0036684842,-0.0111203
,,,0.0036685042,-0.0130402
,,,0.0036685242,-0.0117603
,,,0.0036685442,-0.0117603
,,,0.0036685642,-0.0111203
,,,0.0036685842,-0.0117603
,,,0.0036686042,-0.0124002
,,,0.0036686242,-0.0117603
,,,0.0036686442,-0.0111203
,,,0.0036686642,-0.00984034
,,,0.0036686842,-0.00984034
,,,0.0036687042,-0.00920037
,,,0.0036687242,-0.00984034
,,,0.0036687442,-0.00856039
,,,0.0036687642,-0.00856039
,,,0.0036687842,-0.00792042
,,,0.0036688042,-0.00664047
,,,0.0036688242,-0.00600049
,,,0.0036688442,-0.00600049
,,,0.0036688642,-0.00536052
,,,0.0036688842,-0.00664047
,,,0.0036689042,-0.00664047
,,,0.0036689242,-0.00664047
,,,0.0036689442,-0.00792042
,,,0.0036689642,-0.00856039
,,,0.0036689842,-0.00728044
,,,0.0036690042,-0.00664047
,,,0.0036690242,-0.00792042
,,,0.0036690442,-0.00792042
,,,0.0036690642,-0.00792042
,,,0.0036690842,-0.00792042
,,,0.0036691042,-0.00984034
,,,0.0036691242,-0.0104803
,,,0.0036691442,-0.0111203
,,,0.0036691642,-0.0117603
,,,0.0036691842,-0.0111203
,,,0.0036692042,-0.0117603
,,,0.0036692242,-0.0104803
,,,0.0036692442,-0.0104803
,,,0.0036692642,-0.0117603
,,,0.0036692842,-0.0124002
,,,0.0036693042,-0.0130402
,,,0.0036693242,-0.0124002
,,,0.0036693442,-0.0136802
,,,0.0036693642,-0.0136802
,,,0.0036693842,-0.0136802
,,,0.0036694042,-0.0130402
,,,0.0036694242,-0.0143202
,,,0.0036694442,-0.0143202
,,,0.0036694642,-0.0156001
,,,0.0036694842,-0.0162401
,,,0.0036695042,-0.0162401
,,,0.0036695242,-0.01752
,,,0.0036695442,-0.01752
,,,0.0036695642,-0.01816
,,,0.0036695842,-0.01816
,,,0.0036696042,-0.01816
,,,0.0036696242,-0.0188
,,,0.0036696442,-0.01944
,,,0.0036696642,-0.02008
,,,0.0036696842,-0.02008
,,,0.0036697042,-0.0219999
,,,0.0036697242,-0.0207199
,,,0.0036697442,-0.0207199
,,,0.0036697642,-0.0213599
,,,0.0036697842,-0.0213599
,,,0.0036698042,-0.0213599
,,,0.0036698242,-0.0219999
,,,0.0036698442,-0.0226399
,,,0.0036698642,-0.0219999
,,,0.0036698842,-0.0213599
,,,0.0036699042,-0.0213599
,,,0.0036699242,-0.0219999
,,,0.0036699442,-0.0213599
,,,0.0036699642,-0.0213599
,,,0.0036699842,-0.0239198
,,,0.0036700042,-0.0226399
,,,0.0036700242,-0.0232798
,,,0.0036700442,-0.0226399
,,,0.0036700642,-0.0226399
,,,0.0036700842,-0.0232798
,,,0.0036701042,-0.0245598
,,,0.0036701242,-0.0239198
,,,0.0036701442,-0.0245598
,,,0.0036701642,-0.0258397
,,,0.0036701842,-0.0251998
,,,0.0036702042,-0.0239198
,,,0.0036702242,-0.0271197
,,,0.0036702442,-0.0258397
,,,0.0036702642,-0.0271197
,,,0.0036702842,-0.0271197
,,,0.0036703042,-0.0264797
,,,0.0036703242,-0.0271197
,,,0.0036703442,-0.0277597
,,,0.0036703642,-0.0264797
,,,0.0036703842,-0.0264797
,,,0.0036704042,-0.0271197
,,,0.0036704242,-0.0264797
,,,0.0036704442,-0.0264797
,,,0.0036704642,-0.0258397
,,,0.0036704842,-0.0258397
,,,0.0036705042,-0.0251998
,,,0.0036705242,-0.0251998
,,,0.0036705442,-0.0245598
,,,0.0036705642,-0.0245598
,,,0.0036705842,-0.0239198
,,,0.0036706042,-0.0239198
,,,0.0036706242,-0.0245598
,,,0.0036706442,-0.0239198
,,,0.0036706642,-0.0219999
,,,0.0036706842,-0.0207199
,,,0.0036707042,-0.0219999
,,,0.0036707242,-0.0207199
,,,0.0036707442,-0.0207199
,,,0.0036707642,-0.0213599
,,,0.0036707842,-0.0207199
,,,0.0036708042,-0.0207199
,,,0.0036708242,-0.0207199
,,,0.0036708442,-0.02008
,,,0.0036708642,-0.02008
,,,0.0036708842,-0.02008
,,,0.0036709042,-0.0213599
,,,0.0036709242,-0.02008
,,,0.0036709442,-0.0207199
,,,0.0036709642,-0.0207199
,,,0.0036709842,-0.02008
,,,0.0036710042,-0.0213599
,,,0.0036710242,-0.01944
,,,0.0036710442,-0.02008
,,,0.0036710642,-0.02008
,,,0.0036710842,-0.01944
,,,0.0036711042,-0.02008
,,,0.0036711242,-0.01944
,,,0.0036711442,-0.0188
,,,0.0036711642,-0.01816
,,,0.0036711842,-0.01816
,,,0.0036712042,-0.01816
,,,0.0036712242,-0.01816
,,,0.0036712442,-0.0168801
,,,0.0036712642,-0.0162401
,,,0.0036712842,-0.0156001
,,,0.0036713042,-0.0156001
,,,0.0036713242,-0.0156001
,,,0.0036713442,-0.0143202
,,,0.0036713642,-0.0143202
,,,0.0036713842,-0.0124002
,,,0.0036714042,-0.0130402
,,,0.0036714242,-0.0124002
,,,0.0036714442,-0.0117603
,,,0.0036714642,-0.0111203
,,,0.0036714842,-0.00984034
,,,0.0036715042,-0.0117603
,,,0.0036715242,-0.0104803
,,,0.0036715442,-0.00984034
,,,0.0036715642,-0.00792042
,,,0.0036715842,-0.00984034
,,,0.0036716042,-0.00856039
,,,0.0036716242,-0.00984034
,,,0.0036716442,-0.00856039
,,,0.0036716642,-0.00856039
,,,0.0036716842,-0.00984034
,,,0.0036717042,-0.00856039
,,,0.0036717242,-0.00856039
,,,0.0036717442,-0.00920037
,,,0.0036717642,-0.00856039
,,,0.0036717842,-0.00856039
,,,0.0036718042,-0.00920037
,,,0.0036718242,-0.00856039
,,,0.0036718442,-0.00856039
,,,0.0036718642,-0.00792042
,,,0.0036718842,-0.00600049
,,,0.0036719042,-0.00536052
,,,0.0036719242,-0.00472054
,,,0.0036719442,-0.00728044
,,,0.0036719642,-0.00856039
,,,0.0036719842,-0.0117603
,,,0.0036720042,-0.0117603
,,,0.0036720242,-0.0104803
,,,0.0036720442,-0.00728044
,,,0.0036720642,-0.00280061
,,,0.0036720842,-0.000880688
,,,0.0036721042,-0.000240713
,,,0.0036721242,-0.000240713
,,,0.0036721442,-0.00344059
,,,0.0036721642,-0.00600049
,,,0.0036721842,-0.00792042
,,,0.0036722042,-0.00728044
,,,0.0036722242,-0.00472054
,,,0.0036722442,-0.000240713
,,,0.0036722642,0.00231919
,,,0.0036722842,0.00423912
,,,0.0036723042,0.00359914
,,,0.0036723242,0.00103924
,,,0.0036723442,-0.00344059
,,,0.0036723642,-0.00536052
,,,0.0036723842,-0.00728044
,,,0.0036724042,-0.00664047
,,,0.0036724242,-0.00280061
,,,0.0036724442,0.000399263
,,,0.0036724642,0.00295916
,,,0.0036724842,0.00231919
,,,0.0036725042,0.00103924
,,,0.0036725242,-0.00152066
,,,0.0036725442,-0.00536052
,,,0.0036725642,-0.00728044
,,,0.0036725842,-0.00728044
,,,0.0036726042,-0.00344059
,,,0.0036726242,-0.00216064
,,,0.0036726442,0.000399263
,,,0.0036726642,0.00103924
,,,0.0036726842,-0.000880688
,,,0.0036727042,-0.00152066
,,,0.0036727242,-0.00408057
,,,0.0036727442,-0.00536052
,,,0.0036727642,-0.00600049
,,,0.0036727842,-0.00344059
,,,0.0036728042,-0.00216064
,,,0.0036728242,-0.000880688
,,,0.0036728442,-0.000240713
,,,0.0036728642,-0.00152066
,,,0.0036728842,-0.00216064
,,,0.0036729042,-0.00344059
,,,0.0036729242,-0.00280061
,,,0.0036729442,-0.00344059
,,,0.0036729642,-0.00152066
,,,0.0036729842,0.00103924
,,,0.0036730042,0.00167921
,,,0.0036730242,0.000399263
,,,0.0036730442,0.000399263
,,,0.0036730642,-0.00152066
,,,0.0036730842,-0.00280061
,,,0.0036731042,-0.000880688
,,,0.0036731242,-0.00216064
,,,0.0036731442,-0.000880688
,,,0.0036731642,-0.00152066
,,,0.0036731842,-0.000880688
,,,0.0036732042,0.000399263
,,,0.0036732242,-0.000240713
,,,0.0036732442,-0.00152066
,,,0.0036732642,-0.00344059
,,,0.0036732842,-0.00408057
,,,0.0036733042,-0.00408057
,,,0.0036733242,-0.00344059
,,,0.0036733442,-0.00408057
,,,0.0036733642,-0.00408057
,,,0.0036733842,-0.00472054
,,,0.0036734042,-0.00408057
,,,0.0036734242,-0.00600049
,,,0.0036734442,-0.00600049
,,,0.0036734642,-0.00664047
,,,0.0036734842,-0.00664047
,,,0.0036735042,-0.00600049
,,,0.0036735242,-0.00600049
,,,0.0036735442,-0.00600049
,,,0.0036735642,-0.00600049
,,,0.0036735842,-0.00664047
,,,0.0036736042,-0.00664047
,,,0.0036736242,-0.00792042
,,,0.0036736442,-0.00728044
,,,0.0036736642,-0.00664047
,,,0.0036736842,-0.00664047
,,,0.0036737042,-0.00664047
,,,0.0036737242,-0.00664047
,,,0.0036737442,-0.00664047
,,,0.0036737642,-0.00664047
,,,0.0036737842,-0.00728044
,,,0.0036738042,-0.00728044
,,,0.0036738242,-0.00792042
,,,0.0036738442,-0.00728044
,,,0.0036738642,-0.00728044
,,,0.0036738842,-0.00792042
,,,0.0036739042,-0.00728044
,,,0.0036739242,-0.00792042
,,,0.0036739442,-0.00856039
,,,0.0036739642,-0.00920037
,,,0.0036739842,-0.00920037
,,,0.0036740042,-0.0104803
,,,0.0036740242,-0.00984034
,,,0.0036740442,-0.00984034
,,,0.0036740642,-0.0104803
,,,0.0036740842,-0.0111203
,,,0.0036741042,-0.0104803
,,,0.0036741242,-0.0124002
,,,0.0036741442,-0.0117603
,,,0.0036741642,-0.0130402
,,,0.0036741842,-0.0117603
,,,0.0036742042,-0.0136802
,,,0.0036742242,-0.0136802
,,,0.0036742442,-0.0143202
,,,0.0036742642,-0.0156001
,,,0.0036742842,-0.0149601
,,,0.0036743042,-0.0156001
,,,0.0036743242,-0.0162401
,,,0.0036743442,-0.0149601
,,,0.0036743642,-0.0162401
,,,0.0036743842,-0.0143202
,,,0.0036744042,-0.0136802
,,,0.0036744242,-0.0143202
,,,0.0036744442,-0.0156001
,,,0.0036744642,-0.0162401
,,,0.0036744842,-0.0162401
,,,0.0036745042,-0.0162401
,,,0.0036745242,-0.0156001
,,,0.0036745442,-0.0156001
,,,0.0036745642,-0.0156001
,,,0.0036745842,-0.0156001
,,,0.0036746042,-0.0143202
,,,0.0036746242,-0.0156001
,,,0.0036746442,-0.0156001
,,,0.0036746642,-0.0162401
,,,0.0036746842,-0.0156001
,,,0.0036747042,-0.0168801
,,,0.0036747242,-0.01752
,,,0.0036747442,-0.01752
,,,0.0036747642,-0.01752
,,,0.0036747842,-0.01816
,,,0.0036748042,-0.01816
,,,0.0036748242,-0.0188
,,,0.0036748442,-0.02008
,,,0.0036748642,-0.02008
