data/C1_LP_heatpulse_00016.txt

"Record Length",10002,"Points",0.00365999972,-0.00984034
"Sample Interval",2e-008,s,0.00366001972,-0.0111203
"Trigger Point",-182999,"Samples",0.00366003972,-0.0117603
"Trigger Time",-0.985782,s,0.00366005972,-0.0111203
,,,0.00366007972,-0.0124002
"Horizontal Offset",0.00366,s,0.00366009972,-0.0124002
,,,0.00366011972,-0.0130402
,,,0.00366013972,-0.0130402
,,,0.00366015972,-0.0124002
,,,0.00366017972,-0.0124002
,,,0.00366019972,-0.0124002
,,,0.00366021972,-0.0130402
,,,0.00366023972,-0.0117603
,,,0.00366025972,-0.0130402
,,,0.00366027972,-0.0130402
,,,0.00366029972,-0.0124002
,,,0.00366031972,-0.0124002
,,,0.00366033972,-0.0130402
,,,0.00366035972,-0.0130402
,,,0.00366037972,-0.0117603
,,,0.00366039972,-0.0117603
,,,0.00366041972,-0.0111203
,,,0.00366043972,-0.0124002
,,,0.00366045972,-0.0117603
,,,0.00366047972,-0.0117603
,,,0.00366049972,-0.0124002
,,,0.00366051972,-0.0117603
,,,0.00366053972,-0.0124002
,,,0.00366055972,-0.0104803
,,,0.00366057972,-0.0111203
,,,0.00366059972,-0.0111203
,,,0.00366061972,-0.0117603
,,,0.00366063972,-0.0104803
,,,0.00366065972,-0.00984034
,,,0.00366067972,-0.0104803
,,,0.00366069972,-0.0117603
,,,0.00366071972,-0.0149601
,,,0.00366073972,-0.0188
,,,0.00366075972,-0.02008
,,,0.00366077972,-0.02008
,,,0.00366079972,-0.0168801
,,,0.00366081972,-0.0156001
,,,0.00366083972,-0.0130402
,,,0.00366085972,-0.0124002
,,,0.00366087972,-0.0124002
,,,0.00366089972,-0.0168801
,,,0.00366091972,-0.0188
,,,0.00366093972,-0.0219999
,,,0.00366095972,-0.0213599
,,,0.00366097972,-0.0207199
,,,0.00366099972,-0.01816
,,,0.00366101972,-0.0149601
,,,0.00366103972,-0.0156001
,,,0.00366105972,-0.01816
,,,0.00366107972,-0.01816
,,,0.00366109972,-0.0207199
,,,0.00366111972,-0.02008
,,,0.00366113972,-0.02008
,,,0.00366115972,-0.01816
,,,0.00366117972,-0.0168801
,,,0.00366119972,-0.0168801
,,,0.00366121972,-0.01752
,,,0.00366123972,-0.01944
,,,0.00366125972,-0.02008
,,,0.00366127972,-0.0213599
,,,0.00366129972,-0.0219999
,,,0.00366131972,-0.02008
,,,0.00366133972,-0.01816
,,,0.00366135972,-0.01816
,,,0.00366137972,-0.01944
,,,0.00366139972,-0.0213599
,,,0.00366141972,-0.0226399
,,,0.00366143972,-0.0251998
,,,0.00366145972,-0.0277597
,,,0.00366147972,-0.0271197
,,,0.00366149972,-0.0283996
,,,0.00366151972,-0.0277597
,,,0.00366153972,-0.0264797
,,,0.00366155972,-0.0277597
,,,0.00366157972,-0.0283996
,,,0.00366159972,-0.0290396
,,,0.00366161972,-0.0322395
,,,0.00366163972,-0.0328795
,,,0.00366165972,-0.0347994
,,,0.00366167972,-0.0347994
,,,0.00366169972,-0.0335194
,,,0.00366171972,-0.0347994
,,,0.00366173972,-0.0335194
,,,0.00366175972,-0.0335194
,,,0.00366177972,-0.0347994
,,,0.00366179972,-0.0354394
,,,0.00366181972,-0.0347994
,,,0.00366183972,-0.0347994
,,,0.00366185972,-0.0341594
,,,0.00366187972,-0.0335194
,,,0.00366189972,-0.0347994
,,,0.00366191972,-0.0354394
,,,0.00366193972,-0.0379993
,,,0.00366195972,-0.0379993
,,,0.00366197972,-0.0379993
,,,0.00366199972,-0.0354394
,,,0.00366201972,-0.0322395
,,,0.00366203972,-0.0309595
,,,0.00366205972,-0.0303196
,,,0.00366207972,-0.0315995
,,,0.00366209972,-0.0341594
,,,0.00366211972,-0.0347994
,,,0.00366213972,-0.0347994
,,,0.00366215972,-0.0341594
,,,0.00366217972,-0.0335194
,,,0.00366219972,-0.0309595
,,,0.00366221972,-0.0296796
,,,0.00366223972,-0.0290396
,,,0.00366225972,-0.0309595
,,,0.00366227972,-0.0322395
,,,0.00366229972,-0.0328795
,,,0.00366231972,-0.0335194
,,,0.00366233972,-0.0335194
,,,0.00366235972,-0.0328795
,,,0.00366237972,-0.0315995
,,,0.00366239972,-0.0322395
,,,0.00366241972,-0.0309595
,,,0.00366243972,-0.0309595
,,,0.00366245972,-0.0328795
,,,0.00366247972,-0.0322395
,,,0.00366249972,-0.0328795
,,,0.00366251972,-0.0328795
,,,0.00366253972,-0.0322395
,,,0.00366255972,-0.0296796
,,,0.00366257972,-0.0303196
,,,0.00366259972,-0.0303196
,,,0.00366261972,-0.0303196
,,,0.00366263972,-0.0309595
,,,0.00366265972,-0.0322395
,,,0.00366267972,-0.0309595
,,,0.00366269972,-0.0290396
,,,0.00366271972,-0.0271197
,,,0.00366273972,-0.0258397
,,,0.00366275972,-0.0258397
,,,0.00366277972,-0.0258397
,,,0.00366279972,-0.0258397
,,,0.00366281972,-0.0258397
,,,0.00366283972,-0.0264797
,,,0.00366285972,-0.0245598
,,,0.00366287972,-0.0239198
,,,0.00366289972,-0.0232798
,,,0.00366291972,-0.0226399
,,,0.00366293972,-0.0207199
,,,0.00366295972,-0.0219999
,,,0.00366297972,-0.0219999
,,,0.00366299972,-0.0226399
,,,0.00366301972,-0.0226399
,,,0.00366303972,-0.0219999
,,,0.00366305972,-0.0226399
,,,0.00366307972,-0.0226399
,,,0.00366309972,-0.02008
,,,0.00366311972,-0.01944
,,,0.00366313972,-0.0213599
,,,0.00366315972,-0.0213599
,,,0.00366317972,-0.02008
,,,0.00366319972,-0.0207199
,,,0.00366321972,-0.0213599
,,,0.00366323972,-0.01944
,,,0.00366325972,-0.0207199
,,,0.00366327972,-0.01944
,,,0.00366329972,-0.01944
,,,0.00366331972,-0.0188
,,,0.00366333972,-0.0188
,,,0.00366335972,-0.0188
,,,0.00366337972,-0.0188
,,,0.00366339972,-0.0188
,,,0.00366341972,-0.01816
,,,0.00366343972,-0.01752
,,,0.00366345972,-0.0188
,,,0.00366347972,-0.01752
,,,0.00366349972,-0.01752
,,,0.00366351972,-0.0168801
,,,0.00366353972,-0.0168801
,,,0.00366355972,-0.0162401
,,,0.00366357972,-0.0162401
,,,0.00366359972,-0.0156001
,,,0.00366361972,-0.0156001
,,,0.00366363972,-0.0149601
,,,0.00366365972,-0.0136802
,,,0.00366367972,-0.0136802
,,,0.00366369972,-0.0143202
,,,0.00366371972,-0.0136802
,,,0.00366373972,-0.0143202
,,,0.00366375972,-0.0136802
,,,0.00366377972,-0.0143202
,,,0.00366379972,-0.0130402
,,,0.00366381972,-0.0117603
,,,0.00366383972,-0.0124002
,,,0.00366385972,-0.0130402
,,,0.00366387972,-0.0124002
,,,0.00366389972,-0.0130402
,,,0.00366391972,-0.0124002
,,,0.00366393972,-0.0130402
,,,0.00366395972,-0.0136802
,,,0.00366397972,-0.0124002
,,,0.00366399972,-0.0124002
,,,0.00366401972,-0.0130402
,,,0.00366403972,-0.0136802
,,,0.00366405972,-0.0143202
,,,0.00366407972,-0.0130402
,,,0.00366409972,-0.0130402
,,,0.00366411972,-0.0143202
,,,0.00366413972,-0.0143202
,,,0.00366415972,-0.0130402
,,,0.00366417972,-0.0143202
,,,0.00366419972,-0.0130402
,,,0.00366421972,-0.0136802
,,,0.00366423972,-0.0143202
,,,0.00366425972,-0.0136802
,,,0.00366427972,-0.0136802
,,,0.00366429972,-0.0136802
,,,0.00366431972,-0.0130402
,,,0.00366433972,-0.0130402
,,,0.00366435972,-0.0130402
,,,0.00366437972,-0.0130402
,,,0.00366439972,-0.0124002
,,,0.00366441972,-0.0130402
,,,0.00366443972,-0.0130402
,,,0.00366445972,-0.0130402
,,,0.00366447972,-0.0124002
,,,0.00366449972,-0.0117603
,,,0.00366451972,-0.0117603
,,,0.00366453972,-0.0124002
,,,0.00366455972,-0.0117603
,,,0.00366457972,-0.0130402
,,,0.00366459972,-0.0149601
,,,0.00366461972,-0.0130402
,,,0.00366463972,-0.0143202
,,,0.00366465972,-0.0149601
,,,0.00366467972,-0.0143202
,,,0.00366469972,-0.0149601
,,,0.00366471972,-0.0162401
,,,0.00366473972,-0.0162401
,,,0.00366475972,-0.0162401
,,,0.00366477972,-0.0162401
,,,0.00366479972,-0.0168801
,,,0.00366481972,-0.01752
,,,0.00366483972,-0.01752
,,,0.00366485972,-0.01816
,,,0.00366487972,-0.01816
,,,0.00366489972,-0.01944
,,,0.00366491972,-0.01816
,,,0.00366493972,-0.0188
,,,0.00366495972,-0.0188
,,,0.00366497972,-0.01944
,,,0.00366499972,-0.02008
,,,0.00366501972,-0.02008
,,,0.00366503972,-0.0188
,,,0.00366505972,-0.02008
,,,0.00366507972,-0.0188
,,,0.00366509972,-0.02008
,,,0.00366511972,-0.01944
,,,0.00366513972,-0.02008
,,,0.00366515972,-0.02008
,,,0.00366517972,-0.02008
,,,0.00366519972,-0.01944
,,,0.00366521972,-0.02008
,,,0.00366523972,-0.0207199
,,,0.00366525972,-0.01944
,,,0.00366527972,-0.0188
,,,0.00366529972,-0.02008
,,,0.00366531972,-0.0207199
,,,0.00366533972,-0.02008
,,,0.00366535972,-0.0213599
,,,0.00366537972,-0.0213599
,,,0.00366539972,-0.0213599
,,,0.00366541972,-0.0226399
,,,0.00366543972,-0.0226399
,,,0.00366545972,-0.0232798
,,,0.00366547972,-0.0232798
,,,0.00366549972,-0.0239198
,,,0.00366551972,-0.0239198
,,,0.00366553972,-0.0264797
,,,0.00366555972,-0.0245598
,,,0.00366557972,-0.0264797
,,,0.00366559972,-0.0271197
,,,0.00366561972,-0.0264797
,,,0.00366563972,-0.0264797
,,,0.00366565972,-0.0271197
,,,0.00366567972,-0.0271197
,,,0.00366569972,-0.0283996
,,,0.00366571972,-0.0283996
,,,0.00366573972,-0.0271197
,,,0.00366575972,-0.0277597
,,,0.00366577972,-0.0283996
,,,0.00366579972,-0.0271197
,,,0.00366581972,-0.0283996
,,,0.00366583972,-0.0283996
,,,0.00366585972,-0.0290396
,,,0.00366587972,-0.0290396
,,,0.00366589972,-0.0277597
,,,0.00366591972,-0.0277597
,,,0.00366593972,-0.0290396
,,,0.00366595972,-0.0283996
,,,0.00366597972,-0.0271197
,,,0.00366599972,-0.0283996
,,,0.00366601972,-0.0303196
,,,0.00366603972,-0.0315995
,,,0.00366605972,-0.0328795
,,,0.00366607972,-0.0309595
,,,0.00366609972,-0.0283996
,,,0.00366611972,-0.0245598
,,,0.00366613972,-0.0258397
,,,0.00366615972,-0.0251998
,,,0.00366617972,-0.0283996
,,,0.00366619972,-0.0309595
,,,0.00366621972,-0.0341594
,,,0.00366623972,-0.0354394
,,,0.00366625972,-0.0367193
,,,0.00366627972,-0.0341594
,,,0.00366629972,-0.0303196
,,,0.00366631972,-0.0296796
,,,0.00366633972,-0.0283996
,,,0.00366635972,-0.0303196
,,,0.00366637972,-0.0328795
,,,0.00366639972,-0.0347994
,,,0.00366641972,-0.0367193
,,,0.00366643972,-0.0373593
,,,0.00366645972,-0.0373593
,,,0.00366647972,-0.0335194
,,,0.00366649972,-0.0335194
,,,0.00366651972,-0.0328795
,,,0.00366653972,-0.0328795
,,,0.00366655972,-0.0335194
,,,0.00366657972,-0.0347994
,,,0.00366659972,-0.0335194
,,,0.00366661972,-0.0347994
,,,0.00366663972,-0.0328795
,,,0.00366665972,-0.0335194
,,,0.00366667972,-0.0328795
,,,0.00366669972,-0.0335194
,,,0.00366671972,-0.0335194
,,,0.00366673972,-0.0335194
,,,0.00366675972,-0.0322395
,,,0.00366677972,-0.0328795
,,,0.00366679972,-0.0322395
,,,0.00366681972,-0.0335194
,,,0.00366683972,-0.0322395
,,,0.00366685972,-0.0315995
,,,0.00366687972,-0.0315995
,,,0.00366689972,-0.0328795
,,,0.00366691972,-0.0335194
,,,0.00366693972,-0.0341594
,,,0.00366695972,-0.0335194
,,,0.00366697972,-0.0335194
,,,0.00366699972,-0.0335194
,,,0.00366701972,-0.0335194
,,,0.00366703972,-0.0335194
,,,0.00366705972,-0.0354394
,,,0.00366707972,-0.0347994
,,,0.00366709972,-0.0354394
,,,0.00366711972,-0.0367193
,,,0.00366713972,-0.0379993
,,,0.00366715972,-0.0386392
,,,0.00366717972,-0.0379993
,,,0.00366719972,-0.0373593
,,,0.00366721972,-0.0347994
,,,0.00366723972,-0.0322395
,,,0.00366725972,-0.0315995
,,,0.00366727972,-0.0315995
,,,0.00366729972,-0.0347994
,,,0.00366731972,-0.0379993
,,,0.00366733972,-0.0386392
,,,0.00366735972,-0.0392792
,,,0.00366737972,-0.0386392
,,,0.00366739972,-0.0354394
,,,0.00366741972,-0.0328795
,,,0.00366743972,-0.0303196
,,,0.00366745972,-0.0322395
,,,0.00366747972,-0.0335194
,,,0.00366749972,-0.0354394
,,,0.00366751972,-0.0354394
,,,0.00366753972,-0.0360793
,,,0.00366755972,-0.0341594
,,,0.00366757972,-0.0328795
,,,0.00366759972,-0.0309595
,,,0.00366761972,-0.0296796
,,,0.00366763972,-0.0296796
,,,0.00366765972,-0.0322395
,,,0.00366767972,-0.0315995
,,,0.00366769972,-0.0328795
,,,0.00366771972,-0.0328795
,,,0.00366773972,-0.0328795
,,,0.00366775972,-0.0303196
,,,0.00366777972,-0.0303196
,,,0.00366779972,-0.0303196
,,,0.00366781972,-0.0315995
,,,0.00366783972,-0.0322395
,,,0.00366785972,-0.0328795
,,,0.00366787972,-0.0322395
,,,0.00366789972,-0.0328795
,,,0.00366791972,-0.0315995
,,,0.00366793972,-0.0309595
,,,0.00366795972,-0.0309595
,,,0.00366797972,-0.0309595
,,,0.00366799972,-0.0309595
,,,0.00366801972,-0.0315995
,,,0.00366803972,-0.0328795
,,,0.00366805972,-0.0322395
,,,0.00366807972,-0.0322395
,,,0.00366809972,-0.0309595
,,,0.00366811972,-0.0296796
,,,0.00366813972,-0.0290396
,,,0.00366815972,-0.0277597
,,,0.00366817972,-0.0271197
,,,0.00366819972,-0.0258397
,,,0.00366821972,-0.0245598
,,,0.00366823972,-0.0239198
,,,0.00366825972,-0.0232798
,,,0.00366827972,-0.0219999
,,,0.00366829972,-0.02008
,,,0.00366831972,-0.01944
,,,0.00366833972,-0.01816
,,,0.00366835972,-0.01816
,,,0.00366837972,-0.01752
,,,0.00366839972,-0.0168801
,,,0.00366841972,-0.0162401
,,,0.00366843972,-0.0156001
,,,0.00366845972,-0.0149601
,,,0.00366847972,-0.0162401
,,,0.00366849972,-0.0156001
,,,0.00366851972,-0.0156001
,,,0.00366853972,-0.0168801
,,,0.00366855972,-0.0168801
,,,0.00366857972,-0.01816
,,,0.00366859972,-0.01816
,,,0.00366861972,-0.01816
,,,0.00366863972,-0.0188
,,,0.00366865972,-0.01816
,,,0.00366867972,-0.01752
,,,0.00366869972,-0.0162401
,,,0.00366871972,-0.0168801
,,,0.00366873972,-0.0162401
,,,0.00366875972,-0.0156001
,,,0.00366877972,-0.0168801
,,,0.00366879972,-0.0156001
,,,0.00366881972,-0.0143202
,,,0.00366883972,-0.0149601
,,,0.00366885972,-0.0156001
,,,0.00366887972,-0.0130402
,,,0.00366889972,-0.0130402
,,,0.00366891972,-0.0143202
,,,0.00366893972,-0.0130402
,,,0.00366895972,-0.0117603
,,,0.00366897972,-0.0130402
,,,0.00366899972,-0.0130402
,,,0.00366901972,-0.0136802
,,,0.00366903972,-0.0130402
,,,0.00366905972,-0.0130402
,,,0.00366907972,-0.0136802
,,,0.00366909972,-0.0130402
,,,0.00366911972,-0.0136802
,,,0.00366913972,-0.0149601
,,,0.00366915972,-0.0136802
,,,0.00366917972,-0.0136802
,,,0.00366919972,-0.0143202
,,,0.00366921972,-0.0149601
,,,0.00366923972,-0.0143202
,,,0.00366925972,-0.0162401
,,,0.00366927972,-0.0143202
,,,0.00366929972,-0.0136802
,,,0.00366931972,-0.0136802
,,,0.00366933972,-0.0130402
,,,0.00366935972,-0.0117603
,,,0.00366937972,-0.0117603
,,,0.00366939972,-0.0117603
,,,0.00366941972,-0.0124002
,,,0.00366943972,-0.0111203
,,,0.00366945972,-0.0117603
,,,0.00366947972,-0.00984034
,,,0.00366949972,-0.00792042
,,,0.00366951972,-0.00792042
,,,0.00366953972,-0.00600049
,,,0.00366955972,-0.00600049
,,,0.00366957972,-0.00600049
,,,0.00366959972,-0.00536052
,,,0.00366961972,-0.00600049
,,,0.00366963972,-0.00536052
,,,0.00366965972,-0.00280061
,,,0.00366967972,-0.00216064
,,,0.00366969972,-0.00216064
,,,0.00366971972,-0.000880688
,,,0.00366973972,-0.000240713
,,,0.00366975972,0.00167921
,,,0.00366977972,0.00103924
,,,0.00366979972,0.00167921
,,,0.00366981972,0.00295916
,,,0.00366983972,0.00423912
,,,0.00366985972,0.00423912
,,,0.00366987972,0.00551907
,,,0.00366989972,0.00679902
,,,0.00366991972,0.00743899
,,,0.00366993972,0.00679902
,,,0.00366995972,0.00807897
,,,0.00366997972,0.00743899
,,,0.00366999972,0.00807897
,,,0.00367001972,0.00935892
,,,0.00367003972,0.00871894
,,,0.00367005972,0.00999889
,,,0.00367007972,0.00999889
,,,0.00367009972,0.00935892
,,,0.00367011972,0.00935892
,,,0.00367013972,0.00999889
,,,0.00367015972,0.00935892
,,,0.00367017972,0.00871894
,,,0.00367019972,0.0106389
,,,0.00367021972,0.00935892
,,,0.00367023972,0.00871894
,,,0.00367025972,0.00999889
,,,0.00367027972,0.00935892
,,,0.00367029972,0.00871894
,,,0.00367031972,0.00935892
,,,0.00367033972,0.00807897
,,,0.00367035972,0.00807897
,,,0.00367037972,0.00871894
,,,0.00367039972,0.00871894
,,,0.00367041972,0.00871894
,,,0.00367043972,0.00935892
,,,0.00367045972,0.00871894
,,,0.00367047972,0.00871894
,,,0.00367049972,0.00871894
,,,0.00367051972,0.00807897
,,,0.00367053972,0.00871894
,,,0.00367055972,0.00999889
,,,0.00367057972,0.00871894
,,,0.00367059972,0.00871894
,,,0.00367061972,0.00935892
,,,0.00367063972,0.00935892
,,,0.00367065972,0.00871894
,,,0.00367067972,0.00871894
,,,0.00367069972,0.00871894
,,,0.00367071972,0.00935892
,,,0.00367073972,0.00999889
,,,0.00367075972,0.00871894
,,,0.00367077972,0.00871894
,,,0.00367079972,0.00935892
,,,0.00367081972,0.00807897
,,,0.00367083972,0.00871894
,,,0.00367085972,0.00871894
,,,0.00367087972,0.00871894
,,,0.00367089972,0.00743899
,,,0.00367091972,0.00679902
,,,0.00367093972,0.00743899
,,,0.00367095972,0.00551907
,,,0.00367097972,0.00615904
,,,0.00367099972,0.00551907
,,,0.00367101972,0.00487909
,,,0.00367103972,0.00551907
,,,0.00367105972,0.00359914
,,,0.00367107972,0.00295916
,,,0.00367109972,0.00231919
,,,0.00367111972,0.00231919
,,,0.00367113972,0.00295916
,,,0.00367115972,0.00231919
,,,0.00367117972,0.00167921
,,,0.00367119972,0.00167921
,,,0.00367121972,0.000399263
,,,0.00367123972,-0.000240713
,,,0.00367125972,0.000399263
,,,0.00367127972,-0.000240713
,,,0.00367129972,-0.000880688
,,,0.00367131972,-0.00152066
,,,0.00367133972,-0.00280061
,,,0.00367135972,-0.00216064
,,,0.00367137972,-0.00216064
,,,0.00367139972,-0.00216064
,,,0.00367141972,-0.00216064
,,,0.00367143972,-0.00280061
,,,0.00367145972,-0.00344059
,,,0.00367147972,-0.00280061
,,,0.00367149972,-0.00408057
,,,0.00367151972,-0.00280061
,,,0.00367153972,-0.00472054
,,,0.00367155972,-0.00536052
,,,0.00367157972,-0.00600049
,,,0.00367159972,-0.00600049
,,,0.00367161972,-0.00664047
,,,0.00367163972,-0.00856039
,,,0.00367165972,-0.00856039
,,,0.00367167972,-0.00920037
,,,0.00367169972,-0.0104803
,,,0.00367171972,-0.0130402
,,,0.00367173972,-0.0124002
,,,0.00367175972,-0.0136802
,,,0.00367177972,-0.0149601
,,,0.00367179972,-0.0162401
,,,0.00367181972,-0.0168801
,,,0.00367183972,-0.0168801
,,,0.00367185972,-0.01752
,,,0.00367187972,-0.01944
,,,0.00367189972,-0.0213599
,,,0.00367191972,-0.02008
,,,0.00367193972,-0.0213599
,,,0.00367195972,-0.0219999
,,,0.00367197972,-0.0219999
,,,0.00367199972,-0.0226399
,,,0.00367201972,-0.0251998
,,,0.00367203972,-0.0245598
,,,0.00367205972,-0.0251998
,,,0.00367207972,-0.0258397
,,,0.00367209972,-0.0258397
,,,0.00367211972,-0.0264797
,,,0.00367213972,-0.0264797
,,,0.00367215972,-0.0258397
,,,0.00367217972,-0.0283996
,,,0.00367219972,-0.0303196
,,,0.00367221972,-0.0309595
,,,0.00367223972,-0.0315995
,,,0.00367225972,-0.0303196
,,,0.00367227972,-0.0309595
,,,0.00367229972,-0.0303196
,,,0.00367231972,-0.0309595
,,,0.00367233972,-0.0328795
,,,0.00367235972,-0.0341594
,,,0.00367237972,-0.0354394
,,,0.00367239972,-0.0367193
,,,0.00367241972,-0.0386392
,,,0.00367243972,-0.0379993
,,,0.00367245972,-0.0386392
,,,0.00367247972,-0.0386392
,,,0.00367249972,-0.0392792
,,,0.00367251972,-0.0399192
,,,0.00367253972,-0.0418391
,,,0.00367255972,-0.0431191
,,,0.00367257972,-0.045039
,,,0.00367259972,-0.045039
,,,0.00367261972,-0.045679
,,,0.00367263972,-0.0463189
,,,0.00367265972,-0.0482389
,,,0.00367267972,-0.0482389
,,,0.00367269972,-0.0475989
,,,0.00367271972,-0.0495188
,,,0.00367273972,-0.0501588
,,,0.00367275972,-0.0495188
,,,0.00367277972,-0.0507988
,,,0.00367279972,-0.0514387
,,,0.00367281972,-0.0520787
,,,0.00367283972,-0.0514387
,,,0.00367285972,-0.0533587
,,,0.00367287972,-0.0520787
,,,0.00367289972,-0.0539986
,,,0.00367291972,-0.0539986
,,,0.00367293972,-0.0552786
,,,0.00367295972,-0.0546386
,,,0.00367297972,-0.0559186
,,,0.00367299972,-0.0559186
,,,0.00367301972,-0.0559186
,,,0.00367303972,-0.0559186
,,,0.00367305972,-0.0559186
,,,0.00367307972,-0.0546386
,,,0.00367309972,-0.0559186
,,,0.00367311972,-0.0571985
,,,0.00367313972,-0.0603984
,,,0.00367315972,-0.0642383
,,,0.00367317972,-0.0680781
,,,0.00367319972,-0.0687181
,,,0.00367321972,-0.0655182
,,,0.00367323972,-0.0635983
,,,0.00367325972,-0.0616784
,,,0.00367327972,-0.0610384
,,,0.00367329972,-0.0623183
,,,0.00367331972,-0.0661582
,,,0.00367333972,-0.0693581
,,,0.00367335972,-0.0725579
,,,0.00367337972,-0.0738379
,,,0.00367339972,-0.0731979
,,,0.00367341972,-0.071278
,,,0.00367343972,-0.069998
,,,0.00367345972,-0.0680781
,,,0.00367347972,-0.0693581
,,,0.00367349972,-0.071278
,,,0.00367351972,-0.0731979
,,,0.00367353972,-0.0757578
,,,0.00367355972,-0.0757578
,,,0.00367357972,-0.0751178
,,,0.00367359972,-0.0751178
,,,0.00367361972,-0.0738379
,,,0.00367363972,-0.0725579
,,,0.00367365972,-0.0731979
,,,0.00367367972,-0.0725579
,,,0.00367369972,-0.0757578
,,,0.00367371972,-0.0770378
,,,0.00367373972,-0.0789577
,,,0.00367375972,-0.0802376
,,,0.00367377972,-0.0783177
,,,0.00367379972,-0.0770378
,,,0.00367381972,-0.0744779
,,,0.00367383972,-0.0731979
,,,0.00367385972,-0.0744779
,,,0.00367387972,-0.0757578
,,,0.00367389972,-0.0783177
,,,0.00367391972,-0.0795977
,,,0.00367393972,-0.0808776
,,,0.00367395972,-0.0802376
,,,0.00367397972,-0.0795977
,,,0.00367399972,-0.0770378
,,,0.00367401972,-0.0770378
,,,0.00367403972,-0.0763978
,,,0.00367405972,-0.0783177
,,,0.00367407972,-0.0802376
,,,0.00367409972,-0.0815176
,,,0.00367411972,-0.0827975
,,,0.00367413972,-0.0821576
,,,0.00367415972,-0.0808776
,,,0.00367417972,-0.0815176
,,,0.00367419972,-0.0802376
,,,0.00367421972,-0.0802376
,,,0.00367423972,-0.0815176
