data/C2_LP_heatpulse_00004.txt

"Record Length",10002,"Points",0.00365998097,0.362048
"Sample Interval",2e-008,s,0.00366000097,0.234053
"Trigger Point",-182999,"Samples",0.00366002097,0.266052
"Trigger Time",-0.0484727,s,0.00366004097,0.394047
,,,0.00366006097,0.426045
"Horizontal Offset",0.00365998,s,0.00366008097,0.362048
,,,0.00366010097,0.330049
,,,0.00366012097,0.29805
,,,0.00366014097,0.234053
,,,0.00366016097,0.29805
,,,0.00366018097,0.29805
,,,0.00366020097,0.330049
,,,0.00366022097,0.394047
,,,0.00366024097,0.362048
,,,0.00366026097,0.29805
,,,0.00366028097,0.29805
,,,0.00366030097,0.234053
,,,0.00366032097,0.266052
,,,0.00366034097,0.330049
,,,0.00366036097,0.266052
,,,0.00366038097,0.29805
,,,0.00366040097,0.330049
,,,0.00366042097,0.330049
,,,0.00366044097,0.330049
,,,0.00366046097,0.362048
,,,0.00366048097,0.29805
,,,0.00366050097,0.29805
,,,0.00366052097,0.29805
,,,0.00366054097,0.426045
,,,0.00366056097,0.330049
,,,0.00366058097,0.362048
,,,0.00366060097,0.29805
,,,0.00366062097,0.266052
,,,0.00366064097,0.234053
,,,0.00366066097,0.234053
,,,0.00366068097,0.170055
,,,0.00366070097,0.234053
,,,0.00366072097,0.234053
,,,0.00366074097,0.266052
,,,0.00366076097,0.266052
,,,0.00366078097,0.29805
,,,0.00366080097,0.234053
,,,0.00366082097,0.202054
,,,0.00366084097,0.202054
,,,0.00366086097,0.234053
,,,0.00366088097,0.29805
,,,0.00366090097,0.29805
,,,0.00366092097,0.234053
,,,0.00366094097,0.266052
,,,0.00366096097,0.29805
,,,0.00366098097,0.266052
,,,0.00366100097,0.330049
,,,0.00366102097,0.29805
,,,0.00366104097,0.29805
,,,0.00366106097,0.266052
,,,0.00366108097,0.29805
,,,0.00366110097,0.330049
,,,0.00366112097,0.29805
,,,0.00366114097,0.330049
,,,0.00366116097,0.29805
,,,0.00366118097,0.330049
,,,0.00366120097,0.234053
,,,0.00366122097,0.266052
,,,0.00366124097,0.29805
,,,0.00366126097,0.330049
,,,0.00366128097,0.29805
,,,0.00366130097,0.29805
,,,0.00366132097,0.29805
,,,0.00366134097,0.234053
,,,0.00366136097,0.29805
,,,0.00366138097,0.234053
,,,0.00366140097,0.266052
,,,0.00366142097,0.362048
,,,0.00366144097,0.29805
,,,0.00366146097,0.266052
,,,0.00366148097,0.29805
,,,0.00366150097,0.170055
,,,0.00366152097,0.266052
,,,0.00366154097,0.330049
,,,0.00366156097,0.394047
,,,0.00366158097,0.362048
,,,0.00366160097,0.29805
,,,0.00366162097,0.234053
,,,0.00366164097,0.266052
,,,0.00366166097,0.29805
,,,0.00366168097,0.29805
,,,0.00366170097,0.330049
,,,0.00366172097,0.330049
,,,0.00366174097,0.29805
,,,0.00366176097,0.29805
,,,0.00366178097,0.266052
,,,0.00366180097,0.234053
,,,0.00366182097,0.234053
,,,0.00366184097,0.29805
,,,0.00366186097,0.29805
,,,0.00366188097,0.266052
,,,0.00366190097,0.362048
,,,0.00366192097,0.426045
,,,0.00366194097,0.362048
,,,0.00366196097,0.362048
,,,0.00366198097,0.330049
,,,0.00366200097,0.266052
,,,0.00366202097,0.266052
,,,0.00366204097,0.202054
,,,0.00366206097,0.266052
,,,0.00366208097,0.29805
,,,0.00366210097,0.266052
,,,0.00366212097,0.330049
,,,0.00366214097,0.29805
,,,0.00366216097,0.29805
,,,0.00366218097,0.362048
,,,0.00366220097,0.362048
,,,0.00366222097,0.29805
,,,0.00366224097,0.29805
,,,0.00366226097,0.330049
,,,0.00366228097,0.29805
,,,0.00366230097,0.330049
,,,0.00366232097,0.394047
,,,0.00366234097,0.29805
,,,0.00366236097,0.266052
,,,0.00366238097,0.362048
,,,0.00366240097,0.362048
,,,0.00366242097,0.426045
,,,0.00366244097,0.362048
,,,0.00366246097,0.330049
,,,0.00366248097,0.29805
,,,0.00366250097,0.362048
,,,0.00366252097,0.29805
,,,0.00366254097,0.266052
,,,0.00366256097,0.29805
,,,0.00366258097,0.29805
,,,0.00366260097,0.29805
,,,0.00366262097,0.362048
,,,0.00366264097,0.330049
,,,0.00366266097,0.362048
,,,0.00366268097,0.362048
,,,0.00366270097,0.234053
,,,0.00366272097,0.266052
,,,0.00366274097,0.266052
,,,0.00366276097,0.266052
,,,0.00366278097,0.266052
,,,0.00366280097,0.29805
,,,0.00366282097,0.29805
,,,0.00366284097,0.362048
,,,0.00366286097,0.362048
,,,0.00366288097,0.362048
,,,0.00366290097,0.394047
,,,0.00366292097,0.362048
,,,0.00366294097,0.29805
,,,0.00366296097,0.234053
,,,0.00366298097,0.266052
,,,0.00366300097,0.138057
,,,0.00366302097,0.234053
,,,0.00366304097,0.29805
,,,0.00366306097,0.29805
,,,0.00366308097,0.330049
,,,0.00366310097,0.29805
,,,0.00366312097,0.29805
,,,0.00366314097,0.29805
,,,0.00366316097,0.330049
,,,0.00366318097,0.29805
,,,0.00366320097,0.266052
,,,0.00366322097,0.266052
,,,0.00366324097,0.29805
,,,0.00366326097,0.266052
,,,0.00366328097,0.29805
,,,0.00366330097,0.202054
,,,0.00366332097,0.234053
,,,0.00366334097,0.234053
,,,0.00366336097,0.266052
,,,0.00366338097,0.29805
,,,0.00366340097,0.234053
,,,0.00366342097,0.234053
,,,0.00366344097,0.266052
,,,0.00366346097,0.394047
,,,0.00366348097,0.394047
,,,0.00366350097,0.330049
,,,0.00366352097,0.29805
,,,0.00366354097,0.234053
,,,0.00366356097,0.330049
,,,0.00366358097,0.330049
,,,0.00366360097,0.362048
,,,0.00366362097,0.266052
,,,0.00366364097,0.266052
,,,0.00366366097,0.330049
,,,0.00366368097,0.362048
,,,0.00366370097,0.394047
,,,0.00366372097,0.29805
,,,0.00366374097,0.29805
,,,0.00366376097,0.330049
,,,0.00366378097,0.29805
,,,0.00366380097,0.330049
,,,0.00366382097,0.362048
,,,0.00366384097,0.234053
,,,0.00366386097,0.266052
,,,0.00366388097,0.362048
,,,0.00366390097,0.29805
,,,0.00366392097,0.266052
,,,0.00366394097,0.234053
,,,0.00366396097,0.330049
,,,0.00366398097,0.29805
,,,0.00366400097,0.330049
,,,0.00366402097,0.362048
,,,0.00366404097,0.29805
,,,0.00366406097,0.29805
,,,0.00366408097,0.29805
,,,0.00366410097,0.29805
,,,0.00366412097,0.29805
,,,0.00366414097,0.29805
,,,0.00366416097,0.266052
,,,0.00366418097,0.29805
,,,0.00366420097,0.362048
,,,0.00366422097,0.330049
,,,0.00366424097,0.266052
,,,0.00366426097,0.266052
,,,0.00366428097,0.266052
,,,0.00366430097,0.362048
,,,0.00366432097,0.330049
,,,0.00366434097,0.330049
,,,0.00366436097,0.266052
,,,0.00366438097,0.266052
,,,0.00366440097,0.234053
,,,0.00366442097,0.234053
,,,0.00366444097,0.202054
,,,0.00366446097,0.266052
,,,0.00366448097,0.426045
,,,0.00366450097,0.394047
,,,0.00366452097,0.330049
,,,0.00366454097,0.266052
,,,0.00366456097,0.202054
,,,0.00366458097,0.266052
,,,0.00366460097,0.330049
,,,0.00366462097,0.29805
,,,0.00366464097,0.330049
,,,0.00366466097,0.29805
,,,0.00366468097,0.234053
,,,0.00366470097,0.202054
,,,0.00366472097,0.266052
,,,0.00366474097,0.234053
,,,0.00366476097,0.234053
,,,0.00366478097,0.234053
,,,0.00366480097,0.266052
,,,0.00366482097,0.29805
,,,0.00366484097,0.330049
,,,0.00366486097,0.266052
,,,0.00366488097,0.234053
,,,0.00366490097,0.266052
,,,0.00366492097,0.29805
,,,0.00366494097,0.266052
,,,0.00366496097,0.29805
,,,0.00366498097,0.29805
,,,0.00366500097,0.330049
,,,0.00366502097,0.362048
,,,0.00366504097,0.362048
,,,0.00366506097,0.330049
,,,0.00366508097,0.330049
,,,0.00366510097,0.29805
,,,0.00366512097,0.266052
,,,0.00366514097,0.234053
,,,0.00366516097,0.202054
,,,0.00366518097,0.234053
,,,0.00366520097,0.234053
,,,0.00366522097,0.234053
,,,0.00366524097,0.234053
,,,0.00366526097,0.29805
,,,0.00366528097,0.29805
,,,0.00366530097,0.266052
,,,0.00366532097,0.29805
,,,0.00366534097,0.29805
,,,0.00366536097,0.362048
,,,0.00366538097,0.362048
,,,0.00366540097,0.29805
,,,0.00366542097,0.29805
,,,0.00366544097,0.29805
,,,0.00366546097,0.266052
,,,0.00366548097,0.266052
,,,0.00366550097,0.266052
,,,0.00366552097,0.202054
,,,0.00366554097,0.234053
,,,0.00366556097,0.266052
,,,0.00366558097,0.234053
,,,0.00366560097,0.330049
,,,0.00366562097,0.362048
,,,0.00366564097,0.330049
,,,0.00366566097,0.29805
,,,0.00366568097,0.330049
,,,0.00366570097,0.29805
,,,0.00366572097,0.29805
,,,0.00366574097,0.362048
,,,0.00366576097,0.394047
,,,0.00366578097,0.426045
,,,0.00366580097,0.362048
,,,0.00366582097,0.330049
,,,0.00366584097,0.266052
,,,0.00366586097,0.266052
,,,0.00366588097,0.330049
,,,0.00366590097,0.29805
,,,0.00366592097,0.202054
,,,0.00366594097,0.234053
,,,0.00366596097,0.29805
,,,0.00366598097,0.330049
,,,0.00366600097,0.266052
,,,0.00366602097,0.330049
,,,0.00366604097,0.394047
,,,0.00366606097,0.29805
,,,0.00366608097,0.266052
,,,0.00366610097,0.29805
,,,0.00366612097,0.266052
,,,0.00366614097,0.266052
,,,0.00366616097,0.362048
,,,0.00366618097,0.330049
,,,0.00366620097,0.29805
,,,0.00366622097,0.29805
,,,0.00366624097,0.29805
,,,0.00366626097,0.29805
,,,0.00366628097,0.394047
,,,0.00366630097,0.330049
,,,0.00366632097,0.29805
,,,0.00366634097,0.266052
,,,0.00366636097,0.29805
,,,0.00366638097,0.29805
,,,0.00366640097,0.362048
,,,0.00366642097,0.234053
,,,0.00366644097,0.29805
,,,0.00366646097,0.362048
,,,0.00366648097,0.330049
,,,0.00366650097,0.330049
,,,0.00366652097,0.330049
,,,0.00366654097,0.266052
,,,0.00366656097,0.330049
,,,0.00366658097,0.362048
,,,0.00366660097,0.362048
,,,0.00366662097,0.266052
,,,0.00366664097,0.266052
,,,0.00366666097,0.234053
,,,0.00366668097,0.234053
,,,0.00366670097,0.266052
,,,0.00366672097,0.29805
,,,0.00366674097,0.330049
,,,0.00366676097,0.362048
,,,0.00366678097,0.266052
,,,0.00366680097,0.266052
,,,0.00366682097,0.234053
,,,0.00366684097,0.330049
,,,0.00366686097,0.330049
,,,0.00366688097,0.266052
,,,0.00366690097,0.170055
,,,0.00366692097,0.170055
,,,0.00366694097,0.234053
,,,0.00366696097,0.170055
,,,0.00366698097,0.234053
,,,0.00366700097,0.234053
,,,0.00366702097,0.266052
,,,0.00366704097,0.234053
,,,0.00366706097,0.202054
,,,0.00366708097,0.202054
,,,0.00366710097,0.29805
,,,0.00366712097,0.266052
,,,0.00366714097,0.266052
,,,0.00366716097,0.29805
,,,0.00366718097,0.362048
,,,0.00366720097,0.330049
,,,0.00366722097,0.362048
,,,0.00366724097,0.330049
,,,0.00366726097,0.170055
,,,0.00366728097,0.266052
,,,0.00366730097,0.29805
,,,0.00366732097,0.330049
,,,0.00366734097,0.330049
,,,0.00366736097,0.426045
,,,0.00366738097,0.362048
,,,0.00366740097,0.394047
,,,0.00366742097,0.426045
,,,0.00366744097,0.330049
,,,0.00366746097,0.29805
,,,0.00366748097,0.29805
,,,0.00366750097,0.330049
,,,0.00366752097,0.330049
,,,0.00366754097,0.362048
,,,0.00366756097,0.362048
,,,0.00366758097,0.330049
,,,0.00366760097,0.29805
,,,0.00366762097,0.29805
,,,0.00366764097,0.202054
,,,0.00366766097,0.234053
,,,0.00366768097,0.426045
,,,0.00366770097,0.426045
,,,0.00366772097,0.426045
,,,0.00366774097,0.330049
,,,0.00366776097,0.330049
,,,0.00366778097,0.426045
,,,0.00366780097,0.362048
,,,0.00366782097,0.394047
,,,0.00366784097,0.330049
,,,0.00366786097,0.266052
,,,0.00366788097,0.266052
,,,0.00366790097,0.29805
,,,0.00366792097,0.29805
,,,0.00366794097,0.266052
,,,0.00366796097,0.362048
,,,0.00366798097,0.362048
,,,0.00366800097,0.362048
,,,0.00366802097,0.330049
,,,0.00366804097,0.266052
,,,0.00366806097,0.266052
,,,0.00366808097,0.266052
,,,0.00366810097,0.266052
,,,0.00366812097,0.29805
,,,0.00366814097,0.394047
,,,0.00366816097,0.29805
,,,0.00366818097,0.266052
,,,0.00366820097,0.234053
,,,0.00366822097,0.234053
,,,0.00366824097,0.29805
,,,0.00366826097,0.394047
,,,0.00366828097,0.362048
,,,0.00366830097,0.266052
,,,0.00366832097,0.266052
,,,0.00366834097,0.330049
,,,0.00366836097,0.330049
,,,0.00366838097,0.29805
,,,0.00366840097,0.330049
,,,0.00366842097,0.362048
,,,0.00366844097,0.426045
,,,0.00366846097,0.394047
,,,0.00366848097,0.330049
,,,0.00366850097,0.266052
,,,0.00366852097,0.266052
,,,0.00366854097,0.266052
,,,0.00366856097,0.29805
,,,0.00366858097,0.170055
,,,0.00366860097,0.234053
,,,0.00366862097,0.266052
,,,0.00366864097,0.266052
,,,0.00366866097,0.266052
,,,0.00366868097,0.266052
,,,0.00366870097,0.234053
,,,0.00366872097,0.330049
,,,0.00366874097,0.330049
,,,0.00366876097,0.29805
,,,0.00366878097,0.330049
,,,0.00366880097,0.394047
,,,0.00366882097,0.362048
,,,0.00366884097,0.266052
,,,0.00366886097,0.29805
,,,0.00366888097,0.266052
,,,0.00366890097,0.29805
,,,0.00366892097,0.362048
,,,0.00366894097,0.29805
,,,0.00366896097,0.330049
,,,0.00366898097,0.362048
,,,0.00366900097,0.330049
,,,0.00366902097,0.394047
,,,0.00366904097,0.394047
,,,0.00366906097,0.266052
,,,0.00366908097,0.266052
,,,0.00366910097,0.29805
,,,0.00366912097,0.330049
,,,0.00366914097,0.394047
,,,0.00366916097,0.394047
,,,0.00366918097,0.266052
,,,0.00366920097,0.266052
,,,0.00366922097,0.266052
,,,0.00366924097,0.29805
,,,0.00366926097,0.330049
,,,0.00366928097,0.330049
,,,0.00366930097,0.266052
,,,0.00366932097,0.234053
,,,0.00366934097,0.29805
,,,0.00366936097,0.330049
,,,0.00366938097,0.29805
,,,0.00366940097,0.202054
,,,0.00366942097,0.202054
,,,0.00366944097,0.330049
,,,0.00366946097,0.362048
,,,0.00366948097,0.29805
,,,0.00366950097,0.330049
,,,0.00366952097,0.394047
,,,0.00366954097,0.394047
,,,0.00366956097,0.394047
,,,0.00366958097,0.458044
,,,0.00366960097,0.362048
,,,0.00366962097,0.29805
,,,0.00366964097,0.394047
,,,0.00366966097,0.426045
,,,0.00366968097,0.362048
,,,0.00366970097,0.362048
,,,0.00366972097,0.266052
,,,0.00366974097,0.234053
,,,0.00366976097,0.29805
,,,0.00366978097,0.394047
,,,0.00366980097,0.426045
,,,0.00366982097,0.426045
,,,0.00366984097,0.426045
,,,0.00366986097,0.394047
,,,0.00366988097,0.362048
,,,0.00366990097,0.266052
,,,0.00366992097,0.266052
,,,0.00366994097,0.234053
,,,0.00366996097,0.266052
,,,0.00366998097,0.426045
,,,0.00367000097,0.426045
,,,0.00367002097,0.330049
,,,0.00367004097,0.234053
,,,0.00367006097,0.234053
,,,0.00367008097,0.234053
,,,0.00367010097,0.29805
,,,0.00367012097,0.362048
,,,0.00367014097,0.29805
,,,0.00367016097,0.29805
,,,0.00367018097,0.266052
,,,0.00367020097,0.202054
,,,0.00367022097,0.29805
,,,0.00367024097,0.330049
,,,0.00367026097,0.394047
,,,0.00367028097,0.394047
,,,0.00367030097,0.426045
,,,0.00367032097,0.362048
,,,0.00367034097,0.362048
,,,0.00367036097,0.394047
,,,0.00367038097,0.394047
,,,0.00367040097,0.362048
,,,0.00367042097,0.362048
,,,0.00367044097,0.29805
,,,0.00367046097,0.330049
,,,0.00367048097,0.330049
,,,0.00367050097,0.29805
,,,0.00367052097,0.266052
,,,0.00367054097,0.266052
,,,0.00367056097,0.29805
,,,0.00367058097,0.330049
,,,0.00367060097,0.29805
,,,0.00367062097,0.266052
,,,0.00367064097,0.266052
,,,0.00367066097,0.234053
,,,0.00367068097,0.234053
,,,0.00367070097,0.29805
,,,0.00367072097,0.29805
,,,0.00367074097,0.29805
,,,0.00367076097,0.29805
,,,0.00367078097,0.362048
,,,0.00367080097,0.202054
,,,0.00367082097,0.170055
,,,0.00367084097,0.234053
,,,0.00367086097,0.202054
,,,0.00367088097,0.330049
,,,0.00367090097,0.330049
,,,0.00367092097,0.29805
,,,0.00367094097,0.394047
,,,0.00367096097,0.330049
,,,0.00367098097,0.330049
,,,0.00367100097,0.29805
,,,0.00367102097,0.330049
,,,0.00367104097,0.29805
,,,0.00367106097,0.394047
,,,0.00367108097,0.394047
,,,0.00367110097,0.266052
,,,0.00367112097,0.266052
,,,0.00367114097,0.330049
,,,0.00367116097,0.266052
,,,0.00367118097,0.266052
,,,0.00367120097,0.266052
,,,0.00367122097,0.170055
,,,0.00367124097,0.138057
,,,0.00367126097,0.234053
,,,0.00367128097,0.330049
,,,0.00367130097,0.362048
,,,0.00367132097,0.458044
,,,0.00367134097,0.458044
,,,0.00367136097,0.426045
,,,0.00367138097,0.362048
,,,0.00367140097,0.330049
,,,0.00367142097,0.362048
,,,0.00367144097,0.362048
,,,0.00367146097,0.330049
,,,0.00367148097,0.330049
,,,0.00367150097,0.330049
,,,0.00367152097,0.266052
,,,0.00367154097,0.29805
,,,0.00367156097,0.266052
,,,0.00367158097,0.29805
,,,0.00367160097,0.234053
,,,0.00367162097,0.266052
,,,0.00367164097,0.266052
,,,0.00367166097,0.29805
,,,0.00367168097,0.394047
,,,0.00367170097,0.29805
,,,0.00367172097,0.29805
,,,0.00367174097,0.266052
,,,0.00367176097,0.202054
,,,0.00367178097,0.234053
,,,0.00367180097,0.330049
,,,0.00367182097,0.362048
,,,0.00367184097,0.29805
,,,0.00367186097,0.362048
,,,0.00367188097,0.362048
,,,0.00367190097,0.330049
,,,0.00367192097,0.362048
,,,0.00367194097,0.29805
,,,0.00367196097,0.29805
,,,0.00367198097,0.426045
,,,0.00367200097,0.330049
,,,0.00367202097,0.362048
,,,0.00367204097,0.394047
,,,0.00367206097,0.266052
,,,0.00367208097,0.29805
,,,0.00367210097,0.29805
,,,0.00367212097,0.202054
,,,0.00367214097,0.202054
,,,0.00367216097,0.29805
,,,0.00367218097,0.330049
,,,0.00367220097,0.266052
,,,0.00367222097,0.266052
,,,0.00367224097,0.234053
,,,0.00367226097,0.29805
,,,0.00367228097,0.266052
,,,0.00367230097,0.234053
,,,0.00367232097,0.266052
,,,0.00367234097,0.234053
,,,0.00367236097,0.202054
,,,0.00367238097,0.266052
,,,0.00367240097,0.234053
,,,0.00367242097,0.202054
,,,0.00367244097,0.202054
,,,0.00367246097,0.234053
,,,0.00367248097,0.29805
,,,0.00367250097,0.29805
,,,0.00367252097,0.330049
,,,0.00367254097,0.330049
,,,0.00367256097,0.330049
,,,0.00367258097,0.362048
,,,0.00367260097,0.362048
,,,0.00367262097,0.29805
,,,0.00367264097,0.202054
,,,0.00367266097,0.234053
,,,0.00367268097,0.234053
,,,0.00367270097,0.330049
,,,0.00367272097,0.266052
,,,0.00367274097,0.266052
,,,0.00367276097,0.29805
,,,0.00367278097,0.29805
,,,0.00367280097,0.330049
,,,0.00367282097,0.330049
,,,0.00367284097,0.29805
,,,0.00367286097,0.266052
,,,0.00367288097,0.29805
,,,0.00367290097,0.29805
,,,0.00367292097,0.266052
,,,0.00367294097,0.29805
,,,0.00367296097,0.29805
,,,0.00367298097,0.330049
,,,0.00367300097,0.266052
,,,0.00367302097,0.362048
,,,0.00367304097,0.362048
,,,0.00367306097,0.394047
,,,0.00367308097,0.394047
,,,0.00367310097,0.29805
,,,0.00367312097,0.266052
,,,0.00367314097,0.266052
,,,0.00367316097,0.234053
,,,0.00367318097,0.29805
,,,0.00367320097,0.330049
,,,0.00367322097,0.266052
,,,0.00367324097,0.29805
,,,0.00367326097,0.170055
,,,0.00367328097,0.266052
,,,0.00367330097,0.234053
,,,0.00367332097,0.266052
,,,0.00367334097,0.266052
,,,0.00367336097,0.29805
,,,0.00367338097,0.234053
,,,0.00367340097,0.266052
,,,0.00367342097,0.29805
,,,0.00367344097,0.29805
,,,0.00367346097,0.362048
,,,0.00367348097,0.266052
,,,0.00367350097,0.266052
,,,0.00367352097,0.330049
,,,0.00367354097,0.330049
,,,0.00367356097,0.266052
,,,0.00367358097,0.29805
,,,0.00367360097,0.362048
,,,0.00367362097,0.266052
,,,0.00367364097,0.29805
,,,0.00367366097,0.29805
,,,0.00367368097,0.234053
,,,0.00367370097,0.266052
,,,0.00367372097,0.29805
,,,0.00367374097,0.29805
,,,0.00367376097,0.202054
,,,0.00367378097,0.234053
,,,0.00367380097,0.266052
,,,0.00367382097,0.362048
,,,0.00367384097,0.426045
,,,0.00367386097,0.29805
,,,0.00367388097,0.202054
,,,0.00367390097,0.29805
,,,0.00367392097,0.330049
,,,0.00367394097,0.29805
,,,0.00367396097,0.266052
,,,0.00367398097,0.29805
,,,0.00367400097,0.330049
,,,0.00367402097,0.394047
,,,0.00367404097,0.362048
,,,0.00367406097,0.330049
,,,0.00367408097,0.330049
,,,0.00367410097,0.330049
,,,0.00367412097,0.362048
,,,0.00367414097,0.362048
,,,0.00367416097,0.29805
,,,0.00367418097,0.266052
,,,0.00367420097,0.29805
,,,0.00367422097,0.266052
,,,0.00367424097,0.266052
,,,0.00367426097,0.29805
,,,0.00367428097,0.234053
,,,0.00367430097,0.266052
,,,0.00367432097,0.29805
,,,0.00367434097,0.29805
,,,0.00367436097,0.330049
,,,0.00367438097,0.330049
,,,0.00367440097,0.234053
,,,0.00367442097,0.29805
,,,0.00367444097,0.266052
,,,0.00367446097,0.234053
,,,0.00367448097,0.234053
,,,0.00367450097,0.234053
,,,0.00367452097,0.266052
,,,0.00367454097,0.330049
,,,0.00367456097,0.458044
,,,0.00367458097,0.426045
,,,0.00367460097,0.330049
,,,0.00367462097,0.29805
,,,0.00367464097,0.362048
,,,0.00367466097,0.266052
,,,0.00367468097,0.330049
,,,0.00367470097,0.29805
,,,0.00367472097,0.29805
,,,0.00367474097,0.29805
,,,0.00367476097,0.266052
,,,0.00367478097,0.266052
,,,0.00367480097,0.266052
,,,0.00367482097,0.29805
,,,0.00367484097,0.29805
,,,0.00367486097,0.266052
,,,0.00367488097,0.202054
,,,0.00367490097,0.138057
,,,0.00367492097,0.234053
,,,0.00367494097,0.266052
,,,0.00367496097,0.362048
,,,0.00367498097,0.362048
,,,0.00367500097,0.266052
,,,0.00367502097,0.234053
,,,0.00367504097,0.266052
,,,0.00367506097,0.330049
,,,0.00367508097,0.394047
,,,0.00367510097,0.394047
,,,0.00367512097,0.29805
,,,0.00367514097,0.29805
,,,0.00367516097,0.266052
,,,0.00367518097,0.330049
,,,0.00367520097,0.330049
,,,0.00367522097,0.170055
,,,0.00367524097,0.170055
,,,0.00367526097,0.170055
,,,0.00367528097,0.234053
,,,0.00367530097,0.234053
,,,0.00367532097,0.330049
,,,0.00367534097,0.330049
,,,0.00367536097,0.29805
,,,0.00367538097,0.330049
