data/C3_LP_heatpulse_00003.txt

"Record Length",10002,"Points",0.00365999279,7.51999
"Sample Interval",2e-008,s,0.00366001279,7.58399
"Trigger Point",-182999,"Samples",0.00366003279,7.64798
"Trigger Time",-0.639687,s,0.00366005279,7.51999
,,,0.00366007279,7.58399
"Horizontal Offset",0.00365999,s,0.00366009279,7.58399
,,,0.00366011279,7.51999
,,,0.00366013279,7.51999
,,,0.00366015279,7.64798
,,,0.00366017279,7.64798
,,,0.00366019279,7.51999
,,,0.00366021279,7.51999
,,,0.00366023279,7.51999
,,,0.00366025279,7.51999
,,,0.00366027279,7.58399
,,,0.00366029279,7.45599
,,,0.00366031279,7.51999
,,,0.00366033279,7.58399
,,,0.00366035279,7.58399
,,,0.00366037279,7.64798
,,,0.00366039279,7.45599
,,,0.00366041279,7.45599
,,,0.00366043279,7.58399
,,,0.00366045279,7.51999
,,,0.00366047279,7.58399
,,,0.00366049279,7.64798
,,,0.00366051279,7.58399
,,,0.00366053279,7.58399
,,,0.00366055279,7.51999
,,,0.00366057279,7.51999
,,,0.00366059279,7.51999
,,,0.00366061279,7.51999
,,,0.00366063279,7.58399
,,,0.00366065279,7.58399
,,,0.00366067279,7.58399
,,,0.00366069279,7.51999
,,,0.00366071279,7.58399
,,,0.00366073279,7.58399
,,,0.00366075279,7.51999
,,,0.00366077279,7.45599
,,,0.00366079279,7.64798
,,,0.00366081279,7.64798
,,,0.00366083279,7.58399
,,,0.00366085279,7.58399
,,,0.00366087279,7.71198
,,,0.00366089279,7.51999
,,,0.00366091279,7.64798
,,,0.00366093279,7.64798
,,,0.00366095279,7.58399
,,,0.00366097279,7.64798
,,,0.00366099279,7.71198
,,,0.00366101279,7.64798
,,,0.00366103279,7.64798
,,,0.00366105279,7.58399
,,,0.00366107279,7.58399
,,,0.00366109279,7.64798
,,,0.00366111279,7.58399
,,,0.00366113279,7.71198
,,,0.00366115279,7.58399
,,,0.00366117279,7.64798
,,,0.00366119279,7.45599
,,,0.00366121279,7.64798
,,,0.00366123279,7.71198
,,,0.00366125279,7.64798
,,,0.00366127279,7.64798
,,,0.00366129279,7.64798
,,,0.00366131279,7.58399
,,,0.00366133279,7.58399
,,,0.00366135279,7.64798
,,,0.00366137279,7.58399
,,,0.00366139279,7.71198
,,,0.00366141279,7.58399
,,,0.00366143279,7.64798
,,,0.00366145279,7.71198
,,,0.00366147279,7.58399
,,,0.00366149279,7.58399
,,,0.00366151279,7.64798
,,,0.00366153279,7.64798
,,,0.00366155279,7.58399
,,,0.00366157279,7.77598
,,,0.00366159279,7.71198
,,,0.00366161279,7.71198
,,,0.00366163279,7.71198
,,,0.00366165279,7.77598
,,,0.00366167279,7.71198
,,,0.00366169279,7.71198
,,,0.00366171279,7.64798
,,,0.00366173279,7.71198
,,,0.00366175279,7.77598
,,,0.00366177279,7.64798
,,,0.00366179279,7.71198
,,,0.00366181279,7.77598
,,,0.00366183279,7.83998
,,,0.00366185279,7.71198
,,,0.00366187279,7.71198
,,,0.00366189279,7.77598
,,,0.00366191279,7.77598
,,,0.00366193279,7.71198
,,,0.00366195279,7.64798
,,,0.00366197279,7.83998
,,,0.00366199279,7.71198
,,,0.00366201279,7.71198
,,,0.00366203279,7.77598
,,,0.00366205279,7.71198
,,,0.00366207279,7.77598
,,,0.00366209279,7.77598
,,,0.00366211279,7.71198
,,,0.00366213279,7.83998
,,,0.00366215279,7.77598
,,,0.00366217279,7.83998
,,,0.00366219279,7.64798
,,,0.00366221279,7.77598
,,,0.00366223279,7.77598
,,,0.00366225279,7.77598
,,,0.00366227279,7.71198
,,,0.00366229279,7.77598
,,,0.00366231279,7.77598
,,,0.00366233279,7.77598
,,,0.00366235279,7.77598
,,,0.00366237279,7.83998
,,,0.00366239279,7.77598
,,,0.00366241279,7.83998
,,,0.00366243279,7.77598
,,,0.00366245279,7.77598
,,,0.00366247279,7.77598
,,,0.00366249279,7.71198
,,,0.00366251279,7.71198
,,,0.00366253279,7.77598
,,,0.00366255279,7.90397
,,,0.00366257279,7.71198
,,,0.00366259279,7.77598
,,,0.00366261279,7.71198
,,,0.00366263279,7.77598
,,,0.00366265279,7.90397
,,,0.00366267279,7.71198
,,,0.00366269279,7.83998
,,,0.00366271279,7.77598
,,,0.00366273279,7.83998
,,,0.00366275279,7.77598
,,,0.00366277279,7.83998
,,,0.00366279279,7.83998
,,,0.00366281279,7.96797
,,,0.00366283279,7.77598
,,,0.00366285279,7.83998
,,,0.00366287279,7.77598
,,,0.00366289279,7.77598
,,,0.00366291279,7.77598
,,,0.00366293279,7.77598
,,,0.00366295279,7.90397
,,,0.00366297279,7.90397
,,,0.00366299279,7.83998
,,,0.00366301279,7.77598
,,,0.00366303279,7.77598
,,,0.00366305279,7.83998
,,,0.00366307279,7.77598
,,,0.00366309279,7.83998
,,,0.00366311279,7.83998
,,,0.00366313279,7.77598
,,,0.00366315279,7.71198
,,,0.00366317279,7.83998
,,,0.00366319279,7.83998
,,,0.00366321279,7.83998
,,,0.00366323279,7.77598
,,,0.00366325279,7.77598
,,,0.00366327279,7.77598
,,,0.00366329279,7.77598
,,,0.00366331279,7.90397
,,,0.00366333279,7.83998
,,,0.00366335279,7.71198
,,,0.00366337279,7.77598
,,,0.00366339279,7.90397
,,,0.00366341279,7.83998
,,,0.00366343279,7.77598
,,,0.00366345279,7.83998
,,,0.00366347279,7.90397
,,,0.00366349279,7.77598
,,,0.00366351279,7.77598
,,,0.00366353279,7.90397
,,,0.00366355279,7.90397
,,,0.00366357279,7.90397
,,,0.00366359279,7.90397
,,,0.00366361279,7.96797
,,,0.00366363279,7.83998
,,,0.00366365279,7.90397
,,,0.00366367279,7.96797
,,,0.00366369279,7.77598
,,,0.00366371279,7.71198
,,,0.00366373279,7.96797
,,,0.00366375279,7.83998
,,,0.00366377279,7.90397
,,,0.00366379279,7.77598
,,,0.00366381279,7.83998
,,,0.00366383279,7.90397
,,,0.00366385279,7.83998
,,,0.00366387279,7.90397
,,,0.00366389279,8.03197
,,,0.00366391279,7.83998
,,,0.00366393279,7.90397
,,,0.00366395279,7.83998
,,,0.00366397279,7.83998
,,,0.00366399279,7.83998
,,,0.00366401279,7.90397
,,,0.00366403279,7.83998
,,,0.00366405279,7.83998
,,,0.00366407279,7.77598
,,,0.00366409279,7.83998
,,,0.00366411279,7.83998
,,,0.00366413279,7.83998
,,,0.00366415279,7.83998
,,,0.00366417279,7.96797
,,,0.00366419279,7.77598
,,,0.00366421279,7.71198
,,,0.00366423279,7.90397
,,,0.00366425279,7.83998
,,,0.00366427279,7.83998
,,,0.00366429279,7.77598
,,,0.00366431279,7.83998
,,,0.00366433279,7.83998
,,,0.00366435279,7.83998
,,,0.00366437279,7.77598
,,,0.00366439279,7.90397
,,,0.00366441279,7.77598
,,,0.00366443279,7.83998
,,,0.00366445279,7.83998
,,,0.00366447279,7.64798
,,,0.00366449279,7.90397
,,,0.00366451279,7.77598
,,,0.00366453279,7.77598
,,,0.00366455279,7.90397
,,,0.00366457279,7.71198
,,,0.00366459279,7.90397
,,,0.00366461279,7.77598
,,,0.00366463279,7.83998
,,,0.00366465279,7.77598
,,,0.00366467279,7.83998
,,,0.00366469279,7.83998
,,,0.00366471279,8.03197
,,,0.00366473279,7.77598
,,,0.00366475279,7.83998
,,,0.00366477279,7.96797
,,,0.00366479279,7.90397
,,,0.00366481279,7.90397
,,,0.00366483279,7.90397
,,,0.00366485279,7.83998
,,,0.00366487279,7.90397
,,,0.00366489279,7.90397
,,,0.00366491279,7.77598
,,,0.00366493279,7.90397
,,,0.00366495279,7.90397
,,,0.00366497279,7.96797
,,,0.00366499279,7.90397
,,,0.00366501279,7.90397
,,,0.00366503279,7.96797
,,,0.00366505279,7.96797
,,,0.00366507279,7.90397
,,,0.00366509279,7.90397
,,,0.00366511279,7.83998
,,,0.00366513279,7.96797
,,,0.00366515279,7.83998
,,,0.00366517279,7.96797
,,,0.00366519279,7.96797
,,,0.00366521279,7.90397
,,,0.00366523279,7.96797
,,,0.00366525279,7.96797
,,,0.00366527279,7.90397
,,,0.00366529279,8.03197
,,,0.00366531279,7.90397
,,,0.00366533279,7.90397
,,,0.00366535279,7.90397
,,,0.00366537279,8.09597
,,,0.00366539279,8.03197
,,,0.00366541279,8.03197
,,,0.00366543279,7.90397
,,,0.00366545279,7.90397
,,,0.00366547279,7.96797
,,,0.00366549279,8.03197
,,,0.00366551279,7.96797
,,,0.00366553279,8.03197
,,,0.00366555279,8.09597
,,,0.00366557279,8.03197
,,,0.00366559279,8.03197
,,,0.00366561279,8.03197
,,,0.00366563279,8.09597
,,,0.00366565279,8.09597
,,,0.00366567279,7.96797
,,,0.00366569279,7.96797
,,,0.00366571279,8.09597
,,,0.00366573279,8.03197
,,,0.00366575279,7.96797
,,,0.00366577279,8.09597
,,,0.00366579279,8.09597
,,,0.00366581279,8.09597
,,,0.00366583279,7.96797
,,,0.00366585279,7.96797
,,,0.00366587279,7.90397
,,,0.00366589279,8.15996
,,,0.00366591279,8.09597
,,,0.00366593279,8.03197
,,,0.00366595279,8.03197
,,,0.00366597279,8.03197
,,,0.00366599279,7.96797
,,,0.00366601279,8.03197
,,,0.00366603279,8.09597
,,,0.00366605279,7.96797
,,,0.00366607279,8.15996
,,,0.00366609279,7.96797
,,,0.00366611279,8.09597
,,,0.00366613279,8.09597
,,,0.00366615279,8.09597
,,,0.00366617279,8.09597
,,,0.00366619279,8.03197
,,,0.00366621279,8.09597
,,,0.00366623279,8.15996
,,,0.00366625279,7.96797
,,,0.00366627279,8.15996
,,,0.00366629279,8.03197
,,,0.00366631279,8.15996
,,,0.00366633279,8.03197
,,,0.00366635279,8.15996
,,,0.00366637279,8.15996
,,,0.00366639279,8.15996
,,,0.00366641279,8.09597
,,,0.00366643279,8.03197
,,,0.00366645279,8.22396
,,,0.00366647279,8.09597
,,,0.00366649279,8.22396
,,,0.00366651279,8.15996
,,,0.00366653279,8.09597
,,,0.00366655279,8.22396
,,,0.00366657279,8.03197
,,,0.00366659279,8.15996
,,,0.00366661279,8.22396
,,,0.00366663279,8.15996
,,,0.00366665279,8.15996
,,,0.00366667279,8.15996
,,,0.00366669279,8.15996
,,,0.00366671279,8.15996
,,,0.00366673279,8.15996
,,,0.00366675279,8.09597
,,,0.00366677279,8.15996
,,,0.00366679279,8.09597
,,,0.00366681279,8.15996
,,,0.00366683279,8.15996
,,,0.00366685279,8.09597
,,,0.00366687279,8.09597
,,,0.00366689279,8.22396
,,,0.00366691279,8.15996
,,,0.00366693279,8.15996
,,,0.00366695279,8.15996
,,,0.00366697279,8.15996
,,,0.00366699279,8.03197
,,,0.00366701279,8.22396
,,,0.00366703279,8.15996
,,,0.00366705279,8.15996
,,,0.00366707279,8.09597
,,,0.00366709279,8.22396
,,,0.00366711279,8.15996
,,,0.00366713279,8.15996
,,,0.00366715279,8.22396
,,,0.00366717279,8.09597
,,,0.00366719279,8.22396
,,,0.00366721279,8.15996
,,,0.00366723279,8.15996
,,,0.00366725279,8.15996
,,,0.00366727279,8.15996
,,,0.00366729279,8.22396
,,,0.00366731279,8.15996
,,,0.00366733279,8.15996
,,,0.00366735279,8.09597
,,,0.00366737279,8.15996
,,,0.00366739279,8.09597
,,,0.00366741279,8.15996
,,,0.00366743279,8.22396
,,,0.00366745279,8.22396
,,,0.00366747279,8.22396
,,,0.00366749279,8.09597
,,,0.00366751279,8.15996
,,,0.00366753279,8.28796
,,,0.00366755279,8.03197
,,,0.00366757279,8.22396
,,,0.00366759279,8.09597
,,,0.00366761279,8.09597
,,,0.00366763279,8.22396
,,,0.00366765279,8.22396
,,,0.00366767279,8.22396
,,,0.00366769279,8.22396
,,,0.00366771279,8.09597
,,,0.00366773279,8.15996
,,,0.00366775279,8.22396
,,,0.00366777279,8.09597
,,,0.00366779279,8.09597
,,,0.00366781279,8.09597
,,,0.00366783279,8.22396
,,,0.00366785279,8.09597
,,,0.00366787279,8.15996
,,,0.00366789279,8.09597
,,,0.00366791279,8.15996
,,,0.00366793279,8.22396
,,,0.00366795279,8.09597
,,,0.00366797279,8.22396
,,,0.00366799279,8.22396
,,,0.00366801279,8.28796
,,,0.00366803279,8.15996
,,,0.00366805279,8.22396
,,,0.00366807279,8.09597
,,,0.00366809279,8.22396
,,,0.00366811279,8.22396
,,,0.00366813279,8.28796
,,,0.00366815279,8.15996
,,,0.00366817279,8.09597
,,,0.00366819279,8.15996
,,,0.00366821279,8.15996
,,,0.00366823279,8.22396
,,,0.00366825279,8.15996
,,,0.00366827279,8.15996
,,,0.00366829279,8.22396
,,,0.00366831279,8.15996
,,,0.00366833279,8.15996
,,,0.00366835279,8.22396
,,,0.00366837279,8.15996
,,,0.00366839279,8.15996
,,,0.00366841279,8.28796
,,,0.00366843279,8.15996
,,,0.00366845279,8.22396
,,,0.00366847279,8.15996
,,,0.00366849279,8.15996
,,,0.00366851279,8.28796
,,,0.00366853279,8.28796
,,,0.00366855279,8.28796
,,,0.00366857279,8.22396
,,,0.00366859279,8.22396
,,,0.00366861279,8.28796
,,,0.00366863279,8.22396
,,,0.00366865279,8.22396
,,,0.00366867279,8.35196
,,,0.00366869279,8.28796
,,,0.00366871279,8.28796
,,,0.00366873279,8.41595
,,,0.00366875279,8.28796
,,,0.00366877279,8.22396
,,,0.00366879279,8.35196
,,,0.00366881279,8.22396
,,,0.00366883279,8.15996
,,,0.00366885279,8.35196
,,,0.00366887279,8.35196
,,,0.00366889279,8.28796
,,,0.00366891279,8.35196
,,,0.00366893279,8.35196
,,,0.00366895279,8.28796
,,,0.00366897279,8.28796
,,,0.00366899279,8.22396
,,,0.00366901279,8.28796
,,,0.00366903279,8.28796
,,,0.00366905279,8.15996
,,,0.00366907279,8.35196
,,,0.00366909279,8.35196
,,,0.00366911279,8.28796
,,,0.00366913279,8.28796
,,,0.00366915279,8.35196
,,,0.00366917279,8.28796
,,,0.00366919279,8.35196
,,,0.00366921279,8.35196
,,,0.00366923279,8.15996
,,,0.00366925279,8.28796
,,,0.00366927279,8.28796
,,,0.00366929279,8.28796
,,,0.00366931279,8.35196
,,,0.00366933279,8.47995
,,,0.00366935279,8.28796
,,,0.00366937279,8.47995
,,,0.00366939279,8.35196
,,,0.00366941279,8.28796
,,,0.00366943279,8.35196
,,,0.00366945279,8.35196
,,,0.00366947279,8.28796
,,,0.00366949279,8.28796
,,,0.00366951279,8.41595
,,,0.00366953279,8.35196
,,,0.00366955279,8.28796
,,,0.00366957279,8.41595
,,,0.00366959279,8.47995
,,,0.00366961279,8.35196
,,,0.00366963279,8.41595
,,,0.00366965279,8.35196
,,,0.00366967279,8.41595
,,,0.00366969279,8.41595
,,,0.00366971279,8.35196
,,,0.00366973279,8.35196
,,,0.00366975279,8.41595
,,,0.00366977279,8.41595
,,,0.00366979279,8.28796
,,,0.00366981279,8.41595
,,,0.00366983279,8.35196
,,,0.00366985279,8.47995
,,,0.00366987279,8.35196
,,,0.00366989279,8.22396
,,,0.00366991279,8.35196
,,,0.00366993279,8.47995
,,,0.00366995279,8.28796
,,,0.00366997279,8.41595
,,,0.00366999279,8.41595
,,,0.00367001279,8.28796
,,,0.00367003279,8.28796
,,,0.00367005279,8.35196
,,,0.00367007279,8.28796
,,,0.00367009279,8.41595
,,,0.00367011279,8.54395
,,,0.00367013279,8.28796
,,,0.00367015279,8.41595
,,,0.00367017279,8.41595
,,,0.00367019279,8.28796
,,,0.00367021279,8.28796
,,,0.00367023279,8.47995
,,,0.00367025279,8.41595
,,,0.00367027279,8.28796
,,,0.00367029279,8.35196
,,,0.00367031279,8.35196
,,,0.00367033279,8.41595
,,,0.00367035279,8.35196
,,,0.00367037279,8.28796
,,,0.00367039279,8.35196
,,,0.00367041279,8.41595
,,,0.00367043279,8.41595
,,,0.00367045279,8.47995
,,,0.00367047279,8.47995
,,,0.00367049279,8.41595
,,,0.00367051279,8.28796
,,,0.00367053279,8.41595
,,,0.00367055279,8.28796
,,,0.00367057279,8.41595
,,,0.00367059279,8.35196
,,,0.00367061279,8.35196
,,,0.00367063279,8.47995
,,,0.00367065279,8.35196
,,,0.00367067279,8.28796
,,,0.00367069279,8.35196
,,,0.00367071279,8.47995
,,,0.00367073279,8.35196
,,,0.00367075279,8.47995
,,,0.00367077279,8.47995
,,,0.00367079279,8.35196
,,,0.00367081279,8.41595
,,,0.00367083279,8.41595
,,,0.00367085279,8.35196
,,,0.00367087279,8.35196
,,,0.00367089279,8.47995
,,,0.00367091279,8.35196
,,,0.00367093279,8.47995
,,,0.00367095279,8.47995
,,,0.00367097279,8.41595
,,,0.00367099279,8.35196
,,,0.00367101279,8.47995
,,,0.00367103279,8.60795
,,,0.00367105279,8.47995
,,,0.00367107279,8.47995
,,,0.00367109279,8.41595
,,,0.00367111279,8.41595
,,,0.00367113279,8.47995
,,,0.00367115279,8.41595
,,,0.00367117279,8.22396
,,,0.00367119279,8.47995
,,,0.00367121279,8.47995
,,,0.00367123279,8.54395
,,,0.00367125279,8.54395
,,,0.00367127279,8.54395
,,,0.00367129279,8.47995
,,,0.00367131279,8.35196
,,,0.00367133279,8.35196
,,,0.00367135279,8.47995
,,,0.00367137279,8.47995
,,,0.00367139279,8.41595
,,,0.00367141279,8.41595
,,,0.00367143279,8.47995
,,,0.00367145279,8.35196
,,,0.00367147279,8.41595
,,,0.00367149279,8.41595
,,,0.00367151279,8.28796
,,,0.00367153279,8.47995
,,,0.00367155279,8.47995
,,,0.00367157279,8.41595
,,,0.00367159279,8.35196
,,,0.00367161279,8.54395
,,,0.00367163279,8.47995
,,,0.00367165279,8.47995
,,,0.00367167279,8.35196
,,,0.00367169279,8.41595
,,,0.00367171279,8.35196
,,,0.00367173279,8.54395
,,,0.00367175279,8.47995
,,,0.00367177279,8.47995
,,,0.00367179279,8.47995
,,,0.00367181279,8.47995
,,,0.00367183279,8.54395
,,,0.00367185279,8.54395
,,,0.00367187279,8.60795
,,,0.00367189279,8.60795
,,,0.00367191279,8.41595
,,,0.00367193279,8.41595
,,,0.00367195279,8.41595
,,,0.00367197279,8.47995
,,,0.00367199279,8.47995
,,,0.00367201279,8.54395
,,,0.00367203279,8.54395
,,,0.00367205279,8.47995
,,,0.00367207279,8.47995
,,,0.00367209279,8.41595
,,,0.00367211279,8.35196
,,,0.00367213279,8.47995
,,,0.00367215279,8.47995
,,,0.00367217279,8.35196
,,,0.00367219279,8.60795
,,,0.00367221279,8.41595
,,,0.00367223279,8.41595
,,,0.00367225279,8.54395
,,,0.00367227279,8.47995
,,,0.00367229279,8.60795
,,,0.00367231279,8.47995
,,,0.00367233279,8.54395
,,,0.00367235279,8.67194
,,,0.00367237279,8.54395
,,,0.00367239279,8.54395
,,,0.00367241279,8.41595
,,,0.00367243279,8.54395
,,,0.00367245279,8.60795
,,,0.00367247279,8.67194
,,,0.00367249279,8.47995
,,,0.00367251279,8.54395
,,,0.00367253279,8.47995
,,,0.00367255279,8.60795
,,,0.00367257279,8.60795
,,,0.00367259279,8.67194
,,,0.00367261279,8.54395
,,,0.00367263279,8.67194
,,,0.00367265279,8.54395
,,,0.00367267279,8.60795
,,,0.00367269279,8.67194
,,,0.00367271279,8.60795
,,,0.00367273279,8.60795
,,,0.00367275279,8.54395
,,,0.00367277279,8.73594
,,,0.00367279279,8.60795
,,,0.00367281279,8.60795
,,,0.00367283279,8.67194
,,,0.00367285279,8.60795
,,,0.00367287279,8.54395
,,,0.00367289279,8.67194
,,,0.00367291279,8.54395
,,,0.00367293279,8.67194
,,,0.00367295279,8.67194
,,,0.00367297279,8.60795
,,,0.00367299279,8.60795
,,,0.00367301279,8.67194
,,,0.00367303279,8.60795
,,,0.00367305279,8.67194
,,,0.00367307279,8.60795
,,,0.00367309279,8.79994
,,,0.00367311279,8.60795
,,,0.00367313279,8.54395
,,,0.00367315279,8.67194
,,,0.00367317279,8.73594
,,,0.00367319279,8.60795
,,,0.00367321279,8.60795
,,,0.00367323279,8.60795
,,,0.00367325279,8.67194
,,,0.00367327279,8.60795
,,,0.00367329279,8.73594
,,,0.00367331279,8.67194
,,,0.00367333279,8.67194
,,,0.00367335279,8.60795
,,,0.00367337279,8.67194
,,,0.00367339279,8.67194
,,,0.00367341279,8.67194
,,,0.00367343279,8.67194
,,,0.00367345279,8.67194
,,,0.00367347279,8.60795
,,,0.00367349279,8.67194
,,,0.00367351279,8.60795
,,,0.00367353279,8.67194
,,,0.00367355279,8.73594
,,,0.00367357279,8.60795
,,,0.00367359279,8.73594
,,,0.00367361279,8.73594
,,,0.00367363279,8.73594
,,,0.00367365279,8.73594
,,,0.00367367279,8.73594
,,,0.00367369279,8.60795
,,,0.00367371279,8.67194
,,,0.00367373279,8.67194
,,,0.00367375279,8.73594
,,,0.00367377279,8.60795
,,,0.00367379279,8.60795
,,,0.00367381279,8.67194
,,,0.00367383279,8.67194
,,,0.00367385279,8.67194
,,,0.00367387279,8.60795
,,,0.00367389279,8.73594
,,,0.00367391279,8.67194
,,,0.00367393279,8.60795
,,,0.00367395279,8.67194
,,,0.00367397279,8.67194
,,,0.00367399279,8.73594
,,,0.00367401279,8.67194
,,,0.00367403279,8.67194
,,,0.00367405279,8.67194
,,,0.00367407279,8.67194
,,,0.00367409279,8.67194
,,,0.00367411279,8.67194
,,,0.00367413279,8.67194
,,,0.00367415279,8.73594
,,,0.00367417279,8.73594
,,,0.00367419279,8.60795
,,,0.00367421279,8.73594
,,,0.00367423279,8.67194
,,,0.00367425279,8.67194
,,,0.00367427279,8.73594
,,,0.00367429279,8.60795
,,,0.00367431279,8.60795
,,,0.00367433279,8.79994
,,,0.00367435279,8.60795
,,,0.00367437279,8.67194
,,,0.00367439279,8.67194
,,,0.00367441279,8.60795
,,,0.00367443279,8.73594
,,,0.00367445279,8.73594
,,,0.00367447279,8.67194
,,,0.00367449279,8.67194
,,,0.00367451279,8.47995
,,,0.00367453279,8.60795
,,,0.00367455279,8.67194
,,,0.00367457279,8.73594
,,,0.00367459279,8.67194
,,,0.00367461279,8.67194
,,,0.00367463279,8.60795
,,,0.00367465279,8.67194
,,,0.00367467279,8.67194
,,,0.00367469279,8.73594
,,,0.00367471279,8.67194
,,,0.00367473279,8.60795
,,,0.00367475279,8.73594
,,,0.00367477279,8.73594
,,,0.00367479279,8.73594
,,,0.00367481279,8.67194
,,,0.00367483279,8.67194
,,,0.00367485279,8.73594
,,,0.00367487279,8.73594
,,,0.00367489279,8.67194
,,,0.00367491279,8.79994
,,,0.00367493279,8.79994
,,,0.00367495279,8.67194
,,,0.00367497279,8.60795
,,,0.00367499279,8.60795
,,,0.00367501279,8.67194
,,,0.00367503279,8.67194
,,,0.00367505279,8.79994
,,,0.00367507279,8.67194
,,,0.00367509279,8.73594
,,,0.00367511279,8.73594
,,,0.00367513279,8.67194
,,,0.00367515279,8.79994
,,,0.00367517279,8.73594
,,,0.00367519279,8.73594
,,,0.00367521279,8.67194
,,,0.00367523279,8.67194
,,,0.00367525279,8.67194
,,,0.00367527279,8.79994
,,,0.00367529279,8.67194
,,,0.00367531279,8.67194
,,,0.00367533279,8.67194
,,,0.00367535279,8.86394
,,,0.00367537279,8.60795
,,,0.00367539279,8.67194
,,,0.00367541279,8.73594
,,,0.00367543279,8.67194
,,,0.00367545279,8.67194
,,,0.00367547279,8.67194
,,,0.00367549279,8.73594
,,,0.00367551279,8.67194
,,,0.00367553279,8.73594
,,,0.00367555279,8.73594
,,,0.00367557279,8.79994
,,,0.00367559279,8.73594
,,,0.00367561279,8.73594
,,,0.00367563279,8.73594
,,,0.00367565279,8.79994
,,,0.00367567279,8.73594
,,,0.00367569279,8.73594
,,,0.00367571279,8.79994
,,,0.00367573279,8.79994
,,,0.00367575279,8.67194
,,,0.00367577279,8.86394
,,,0.00367579279,8.73594
,,,0.00367581279,8.73594
,,,0.00367583279,8.73594
,,,0.00367585279,8.86394
