data/C3_LP_heatpulse_00023.txt

"Record Length",10002,"Points",0.00365999757,7.51999
"Sample Interval",2e-008,s,0.00366001757,7.45599
"Trigger Point",-182999,"Samples",0.00366003757,7.51999
"Trigger Time",-0.878698,s,0.00366005757,7.45599
,,,0.00366007757,7.51999
"Horizontal Offset",0.00366,s,0.00366009757,7.45599
,,,0.00366011757,7.58399
,,,0.00366013757,7.58399
,,,0.00366015757,7.64798
,,,0.00366017757,7.45599
,,,0.00366019757,7.51999
,,,0.00366021757,7.51999
,,,0.00366023757,7.58399
,,,0.00366025757,7.58399
,,,0.00366027757,7.64798
,,,0.00366029757,7.58399
,,,0.00366031757,7.45599
,,,0.00366033757,7.51999
,,,0.00366035757,7.58399
,,,0.00366037757,7.51999
,,,0.00366039757,7.51999
,,,0.00366041757,7.58399
,,,0.00366043757,7.58399
,,,0.00366045757,7.51999
,,,0.00366047757,7.58399
,,,0.00366049757,7.51999
,,,0.00366051757,7.58399
,,,0.00366053757,7.51999
,,,0.00366055757,7.45599
,,,0.00366057757,7.58399
,,,0.00366059757,7.71198
,,,0.00366061757,7.64798
,,,0.00366063757,7.64798
,,,0.00366065757,7.64798
,,,0.00366067757,7.51999
,,,0.00366069757,7.51999
,,,0.00366071757,7.64798
,,,0.00366073757,7.45599
,,,0.00366075757,7.58399
,,,0.00366077757,7.58399
,,,0.00366079757,7.45599
,,,0.00366081757,7.51999
,,,0.00366083757,7.64798
,,,0.00366085757,7.64798
,,,0.00366087757,7.64798
,,,0.00366089757,7.58399
,,,0.00366091757,7.64798
,,,0.00366093757,7.64798
,,,0.00366095757,7.58399
,,,0.00366097757,7.64798
,,,0.00366099757,7.64798
,,,0.00366101757,7.77598
,,,0.00366103757,7.58399
,,,0.00366105757,7.64798
,,,0.00366107757,7.58399
,,,0.00366109757,7.64798
,,,0.00366111757,7.51999
,,,0.00366113757,7.58399
,,,0.00366115757,7.51999
,,,0.00366117757,7.58399
,,,0.00366119757,7.64798
,,,0.00366121757,7.71198
,,,0.00366123757,7.71198
,,,0.00366125757,7.51999
,,,0.00366127757,7.58399
,,,0.00366129757,7.58399
,,,0.00366131757,7.71198
,,,0.00366133757,7.64798
,,,0.00366135757,7.58399
,,,0.00366137757,7.64798
,,,0.00366139757,7.58399
,,,0.00366141757,7.58399
,,,0.00366143757,7.58399
,,,0.00366145757,7.51999
,,,0.00366147757,7.51999
,,,0.00366149757,7.71198
,,,0.00366151757,7.51999
,,,0.00366153757,7.51999
,,,0.00366155757,7.77598
,,,0.00366157757,7.71198
,,,0.00366159757,7.71198
,,,0.00366161757,7.71198
,,,0.00366163757,7.64798
,,,0.00366165757,7.71198
,,,0.00366167757,7.71198
,,,0.00366169757,7.64798
,,,0.00366171757,7.71198
,,,0.00366173757,7.58399
,,,0.00366175757,7.71198
,,,0.00366177757,7.77598
,,,0.00366179757,7.77598
,,,0.00366181757,7.64798
,,,0.00366183757,7.71198
,,,0.00366185757,7.64798
,,,0.00366187757,7.77598
,,,0.00366189757,7.77598
,,,0.00366191757,7.71198
,,,0.00366193757,7.64798
,,,0.00366195757,7.77598
,,,0.00366197757,7.71198
,,,0.00366199757,7.71198
,,,0.00366201757,7.71198
,,,0.00366203757,7.83998
,,,0.00366205757,7.64798
,,,0.00366207757,7.71198
,,,0.00366209757,7.71198
,,,0.00366211757,7.77598
,,,0.00366213757,7.71198
,,,0.00366215757,7.83998
,,,0.00366217757,7.71198
,,,0.00366219757,7.71198
,,,0.00366221757,7.64798
,,,0.00366223757,7.77598
,,,0.00366225757,7.77598
,,,0.00366227757,7.71198
,,,0.00366229757,7.71198
,,,0.00366231757,7.71198
,,,0.00366233757,7.77598
,,,0.00366235757,7.71198
,,,0.00366237757,7.71198
,,,0.00366239757,7.77598
,,,0.00366241757,7.64798
,,,0.00366243757,7.83998
,,,0.00366245757,7.71198
,,,0.00366247757,7.77598
,,,0.00366249757,7.64798
,,,0.00366251757,7.71198
,,,0.00366253757,7.96797
,,,0.00366255757,7.90397
,,,0.00366257757,7.83998
,,,0.00366259757,7.77598
,,,0.00366261757,7.83998
,,,0.00366263757,7.83998
,,,0.00366265757,7.77598
,,,0.00366267757,7.77598
,,,0.00366269757,7.83998
,,,0.00366271757,7.90397
,,,0.00366273757,7.77598
,,,0.00366275757,7.77598
,,,0.00366277757,7.83998
,,,0.00366279757,7.83998
,,,0.00366281757,7.83998
,,,0.00366283757,7.77598
,,,0.00366285757,7.90397
,,,0.00366287757,7.83998
,,,0.00366289757,7.83998
,,,0.00366291757,7.77598
,,,0.00366293757,7.77598
,,,0.00366295757,7.83998
,,,0.00366297757,7.77598
,,,0.00366299757,7.77598
,,,0.00366301757,7.77598
,,,0.00366303757,7.71198
,,,0.00366305757,7.83998
,,,0.00366307757,7.83998
,,,0.00366309757,7.83998
,,,0.00366311757,7.77598
,,,0.00366313757,7.77598
,,,0.00366315757,7.90397
,,,0.00366317757,7.77598
,,,0.00366319757,7.77598
,,,0.00366321757,7.90397
,,,0.00366323757,7.77598
,,,0.00366325757,7.90397
,,,0.00366327757,7.77598
,,,0.00366329757,7.83998
,,,0.00366331757,7.90397
,,,0.00366333757,7.90397
,,,0.00366335757,7.96797
,,,0.00366337757,7.77598
,,,0.00366339757,7.83998
,,,0.00366341757,7.83998
,,,0.00366343757,7.83998
,,,0.00366345757,7.90397
,,,0.00366347757,7.83998
,,,0.00366349757,7.90397
,,,0.00366351757,7.83998
,,,0.00366353757,7.77598
,,,0.00366355757,7.90397
,,,0.00366357757,7.77598
,,,0.00366359757,7.90397
,,,0.00366361757,7.83998
,,,0.00366363757,7.83998
,,,0.00366365757,7.90397
,,,0.00366367757,7.83998
,,,0.00366369757,7.71198
,,,0.00366371757,7.96797
,,,0.00366373757,7.77598
,,,0.00366375757,7.71198
,,,0.00366377757,7.77598
,,,0.00366379757,7.96797
,,,0.00366381757,7.83998
,,,0.00366383757,7.90397
,,,0.00366385757,7.77598
,,,0.00366387757,7.83998
,,,0.00366389757,7.90397
,,,0.00366391757,7.77598
,,,0.00366393757,7.90397
,,,0.00366395757,7.90397
,,,0.00366397757,7.77598
,,,0.00366399757,7.83998
,,,0.00366401757,7.90397
,,,0.00366403757,7.90397
,,,0.00366405757,7.83998
,,,0.00366407757,7.90397
,,,0.00366409757,7.83998
,,,0.00366411757,7.96797
,,,0.00366413757,7.90397
,,,0.00366415757,7.96797
,,,0.00366417757,7.90397
,,,0.00366419757,7.77598
,,,0.00366421757,7.90397
,,,0.00366423757,7.90397
,,,0.00366425757,7.83998
,,,0.00366427757,7.90397
,,,0.00366429757,7.77598
,,,0.00366431757,7.77598
,,,0.00366433757,7.83998
,,,0.00366435757,7.90397
,,,0.00366437757,7.90397
,,,0.00366439757,7.90397
,,,0.00366441757,7.90397
,,,0.00366443757,7.90397
,,,0.00366445757,7.90397
,,,0.00366447757,7.83998
,,,0.00366449757,7.77598
,,,0.00366451757,7.90397
,,,0.00366453757,7.90397
,,,0.00366455757,7.71198
,,,0.00366457757,7.77598
,,,0.00366459757,7.83998
,,,0.00366461757,7.77598
,,,0.00366463757,7.83998
,,,0.00366465757,7.90397
,,,0.00366467757,7.83998
,,,0.00366469757,7.90397
,,,0.00366471757,7.83998
,,,0.00366473757,7.83998
,,,0.00366475757,7.83998
,,,0.00366477757,7.90397
,,,0.00366479757,7.83998
,,,0.00366481757,7.90397
,,,0.00366483757,7.90397
,,,0.00366485757,7.90397
,,,0.00366487757,7.90397
,,,0.00366489757,7.83998
,,,0.00366491757,7.96797
,,,0.00366493757,7.83998
,,,0.00366495757,7.90397
,,,0.00366497757,7.83998
,,,0.00366499757,7.90397
,,,0.00366501757,7.90397
,,,0.00366503757,7.77598
,,,0.00366505757,7.90397
,,,0.00366507757,7.90397
,,,0.00366509757,7.90397
,,,0.00366511757,7.83998
,,,0.00366513757,7.90397
,,,0.00366515757,7.77598
,,,0.00366517757,7.83998
,,,0.00366519757,7.83998
,,,0.00366521757,7.96797
,,,0.00366523757,7.71198
,,,0.00366525757,7.77598
,,,0.00366527757,7.90397
,,,0.00366529757,7.83998
,,,0.00366531757,7.83998
,,,0.00366533757,7.90397
,,,0.00366535757,7.77598
,,,0.00366537757,7.83998
,,,0.00366539757,7.96797
,,,0.00366541757,7.96797
,,,0.00366543757,8.03197
,,,0.00366545757,7.90397
,,,0.00366547757,7.90397
,,,0.00366549757,8.09597
,,,0.00366551757,7.90397
,,,0.00366553757,8.03197
,,,0.00366555757,8.03197
,,,0.00366557757,7.90397
,,,0.00366559757,7.90397
,,,0.00366561757,7.90397
,,,0.00366563757,7.96797
,,,0.00366565757,8.09597
,,,0.00366567757,7.96797
,,,0.00366569757,8.03197
,,,0.00366571757,8.03197
,,,0.00366573757,7.96797
,,,0.00366575757,8.03197
,,,0.00366577757,8.03197
,,,0.00366579757,7.96797
,,,0.00366581757,7.96797
,,,0.00366583757,8.09597
,,,0.00366585757,8.03197
,,,0.00366587757,8.03197
,,,0.00366589757,8.09597
,,,0.00366591757,8.09597
,,,0.00366593757,7.96797
,,,0.00366595757,8.03197
,,,0.00366597757,7.96797
,,,0.00366599757,8.09597
,,,0.00366601757,7.90397
,,,0.00366603757,8.03197
,,,0.00366605757,8.03197
,,,0.00366607757,8.15996
,,,0.00366609757,8.03197
,,,0.00366611757,7.96797
,,,0.00366613757,7.96797
,,,0.00366615757,8.03197
,,,0.00366617757,8.03197
,,,0.00366619757,8.09597
,,,0.00366621757,8.09597
,,,0.00366623757,8.03197
,,,0.00366625757,8.03197
,,,0.00366627757,7.96797
,,,0.00366629757,8.15996
,,,0.00366631757,8.03197
,,,0.00366633757,8.03197
,,,0.00366635757,8.15996
,,,0.00366637757,8.09597
,,,0.00366639757,8.09597
,,,0.00366641757,8.09597
,,,0.00366643757,8.22396
,,,0.00366645757,8.09597
,,,0.00366647757,8.03197
,,,0.00366649757,8.03197
,,,0.00366651757,8.15996
,,,0.00366653757,8.15996
,,,0.00366655757,8.22396
,,,0.00366657757,8.09597
,,,0.00366659757,8.09597
,,,0.00366661757,8.15996
,,,0.00366663757,8.22396
,,,0.00366665757,7.96797
,,,0.00366667757,8.15996
,,,0.00366669757,8.22396
,,,0.00366671757,8.09597
,,,0.00366673757,8.15996
,,,0.00366675757,8.03197
,,,0.00366677757,8.09597
,,,0.00366679757,8.03197
,,,0.00366681757,8.03197
,,,0.00366683757,8.09597
,,,0.00366685757,8.03197
,,,0.00366687757,8.09597
,,,0.00366689757,8.09597
,,,0.00366691757,8.09597
,,,0.00366693757,8.03197
,,,0.00366695757,8.15996
,,,0.00366697757,8.15996
,,,0.00366699757,8.15996
,,,0.00366701757,8.22396
,,,0.00366703757,8.15996
,,,0.00366705757,8.09597
,,,0.00366707757,8.22396
,,,0.00366709757,8.15996
,,,0.00366711757,8.15996
,,,0.00366713757,8.09597
,,,0.00366715757,8.22396
,,,0.00366717757,8.09597
,,,0.00366719757,8.09597
,,,0.00366721757,8.22396
,,,0.00366723757,8.15996
,,,0.00366725757,8.22396
,,,0.00366727757,8.15996
,,,0.00366729757,8.22396
,,,0.00366731757,8.22396
,,,0.00366733757,8.15996
,,,0.00366735757,8.22396
,,,0.00366737757,8.15996
,,,0.00366739757,8.22396
,,,0.00366741757,8.15996
,,,0.00366743757,8.28796
,,,0.00366745757,8.15996
,,,0.00366747757,8.15996
,,,0.00366749757,8.09597
,,,0.00366751757,8.09597
,,,0.00366753757,8.22396
,,,0.00366755757,8.15996
,,,0.00366757757,8.22396
,,,0.00366759757,8.15996
,,,0.00366761757,7.96797
,,,0.00366763757,8.15996
,,,0.00366765757,8.09597
,,,0.00366767757,8.15996
,,,0.00366769757,8.15996
,,,0.00366771757,8.22396
,,,0.00366773757,8.15996
,,,0.00366775757,8.15996
,,,0.00366777757,8.09597
,,,0.00366779757,8.15996
,,,0.00366781757,8.09597
,,,0.00366783757,8.15996
,,,0.00366785757,8.22396
,,,0.00366787757,8.28796
,,,0.00366789757,8.15996
,,,0.00366791757,8.28796
,,,0.00366793757,8.15996
,,,0.00366795757,8.28796
,,,0.00366797757,8.15996
,,,0.00366799757,8.09597
,,,0.00366801757,8.22396
,,,0.00366803757,8.22396
,,,0.00366805757,8.15996
,,,0.00366807757,8.22396
,,,0.00366809757,8.09597
,,,0.00366811757,8.15996
,,,0.00366813757,8.28796
,,,0.00366815757,8.15996
,,,0.00366817757,8.22396
,,,0.00366819757,8.28796
,,,0.00366821757,8.03197
,,,0.00366823757,8.09597
,,,0.00366825757,8.09597
,,,0.00366827757,8.28796
,,,0.00366829757,8.09597
,,,0.00366831757,8.22396
,,,0.00366833757,8.22396
,,,0.00366835757,8.15996
,,,0.00366837757,8.22396
,,,0.00366839757,8.22396
,,,0.00366841757,8.22396
,,,0.00366843757,8.22396
,,,0.00366845757,8.15996
,,,0.00366847757,8.15996
,,,0.00366849757,8.22396
,,,0.00366851757,8.28796
,,,0.00366853757,8.15996
,,,0.00366855757,8.22396
,,,0.00366857757,8.22396
,,,0.00366859757,8.22396
,,,0.00366861757,8.22396
,,,0.00366863757,8.15996
,,,0.00366865757,8.22396
,,,0.00366867757,8.28796
,,,0.00366869757,8.22396
,,,0.00366871757,8.15996
,,,0.00366873757,8.22396
,,,0.00366875757,8.41595
,,,0.00366877757,8.22396
,,,0.00366879757,8.22396
,,,0.00366881757,8.22396
,,,0.00366883757,8.28796
,,,0.00366885757,8.22396
,,,0.00366887757,8.15996
,,,0.00366889757,8.22396
,,,0.00366891757,8.28796
,,,0.00366893757,8.28796
,,,0.00366895757,8.15996
,,,0.00366897757,8.28796
,,,0.00366899757,8.22396
,,,0.00366901757,8.15996
,,,0.00366903757,8.28796
,,,0.00366905757,8.28796
,,,0.00366907757,8.28796
,,,0.00366909757,8.22396
,,,0.00366911757,8.15996
,,,0.00366913757,8.28796
,,,0.00366915757,8.28796
,,,0.00366917757,8.28796
,,,0.00366919757,8.22396
,,,0.00366921757,8.35196
,,,0.00366923757,8.28796
,,,0.00366925757,8.28796
,,,0.00366927757,8.28796
,,,0.00366929757,8.35196
,,,0.00366931757,8.22396
,,,0.00366933757,8.22396
,,,0.00366935757,8.28796
,,,0.00366937757,8.28796
,,,0.00366939757,8.28796
,,,0.00366941757,8.41595
,,,0.00366943757,8.22396
,,,0.00366945757,8.28796
,,,0.00366947757,8.35196
,,,0.00366949757,8.22396
,,,0.00366951757,8.28796
,,,0.00366953757,8.35196
,,,0.00366955757,8.47995
,,,0.00366957757,8.28796
,,,0.00366959757,8.35196
,,,0.00366961757,8.35196
,,,0.00366963757,8.35196
,,,0.00366965757,8.47995
,,,0.00366967757,8.28796
,,,0.00366969757,8.28796
,,,0.00366971757,8.35196
,,,0.00366973757,8.28796
,,,0.00366975757,8.35196
,,,0.00366977757,8.35196
,,,0.00366979757,8.28796
,,,0.00366981757,8.35196
,,,0.00366983757,8.35196
,,,0.00366985757,8.41595
,,,0.00366987757,8.28796
,,,0.00366989757,8.35196
,,,0.00366991757,8.41595
,,,0.00366993757,8.28796
,,,0.00366995757,8.35196
,,,0.00366997757,8.28796
,,,0.00366999757,8.41595
,,,0.00367001757,8.35196
,,,0.00367003757,8.35196
,,,0.00367005757,8.35196
,,,0.00367007757,8.28796
,,,0.00367009757,8.22396
,,,0.00367011757,8.41595
,,,0.00367013757,8.41595
,,,0.00367015757,8.41595
,,,0.00367017757,8.35196
,,,0.00367019757,8.54395
,,,0.00367021757,8.35196
,,,0.00367023757,8.41595
,,,0.00367025757,8.41595
,,,0.00367027757,8.35196
,,,0.00367029757,8.35196
,,,0.00367031757,8.35196
,,,0.00367033757,8.28796
,,,0.00367035757,8.41595
,,,0.00367037757,8.47995
,,,0.00367039757,8.41595
,,,0.00367041757,8.28796
,,,0.00367043757,8.41595
,,,0.00367045757,8.47995
,,,0.00367047757,8.41595
,,,0.00367049757,8.35196
,,,0.00367051757,8.41595
,,,0.00367053757,8.35196
,,,0.00367055757,8.54395
,,,0.00367057757,8.41595
,,,0.00367059757,8.28796
,,,0.00367061757,8.54395
,,,0.00367063757,8.41595
,,,0.00367065757,8.47995
,,,0.00367067757,8.41595
,,,0.00367069757,8.41595
,,,0.00367071757,8.47995
,,,0.00367073757,8.28796
,,,0.00367075757,8.41595
,,,0.00367077757,8.35196
,,,0.00367079757,8.47995
,,,0.00367081757,8.28796
,,,0.00367083757,8.41595
,,,0.00367085757,8.41595
,,,0.00367087757,8.35196
,,,0.00367089757,8.47995
,,,0.00367091757,8.41595
,,,0.00367093757,8.41595
,,,0.00367095757,8.47995
,,,0.00367097757,8.41595
,,,0.00367099757,8.60795
,,,0.00367101757,8.41595
,,,0.00367103757,8.47995
,,,0.00367105757,8.35196
,,,0.00367107757,8.54395
,,,0.00367109757,8.47995
,,,0.00367111757,8.54395
,,,0.00367113757,8.54395
,,,0.00367115757,8.41595
,,,0.00367117757,8.47995
,,,0.00367119757,8.41595
,,,0.00367121757,8.47995
,,,0.00367123757,8.41595
,,,0.00367125757,8.47995
,,,0.00367127757,8.47995
,,,0.00367129757,8.54395
,,,0.00367131757,8.41595
,,,0.00367133757,8.54395
,,,0.00367135757,8.41595
,,,0.00367137757,8.54395
,,,0.00367139757,8.47995
,,,0.00367141757,8.60795
,,,0.00367143757,8.47995
,,,0.00367145757,8.41595
,,,0.00367147757,8.47995
,,,0.00367149757,8.35196
,,,0.00367151757,8.41595
,,,0.00367153757,8.35196
,,,0.00367155757,8.47995
,,,0.00367157757,8.47995
,,,0.00367159757,8.28796
,,,0.00367161757,8.54395
,,,0.00367163757,8.47995
,,,0.00367165757,8.47995
,,,0.00367167757,8.54395
,,,0.00367169757,8.47995
,,,0.00367171757,8.47995
,,,0.00367173757,8.47995
,,,0.00367175757,8.54395
,,,0.00367177757,8.35196
,,,0.00367179757,8.54395
,,,0.00367181757,8.60795
,,,0.00367183757,8.47995
,,,0.00367185757,8.54395
,,,0.00367187757,8.60795
,,,0.00367189757,8.54395
,,,0.00367191757,8.47995
,,,0.00367193757,8.47995
,,,0.00367195757,8.41595
,,,0.00367197757,8.54395
,,,0.00367199757,8.54395
,,,0.00367201757,8.41595
,,,0.00367203757,8.41595
,,,0.00367205757,8.47995
,,,0.00367207757,8.47995
,,,0.00367209757,8.47995
,,,0.00367211757,8.60795
,,,0.00367213757,8.41595
,,,0.00367215757,8.41595
,,,0.00367217757,8.60795
,,,0.00367219757,8.47995
,,,0.00367221757,8.47995
,,,0.00367223757,8.47995
,,,0.00367225757,8.47995
,,,0.00367227757,8.41595
,,,0.00367229757,8.47995
,,,0.00367231757,8.47995
,,,0.00367233757,8.41595
,,,0.00367235757,8.54395
,,,0.00367237757,8.54395
,,,0.00367239757,8.47995
,,,0.00367241757,8.47995
,,,0.00367243757,8.54395
,,,0.00367245757,8.47995
,,,0.00367247757,8.54395
,,,0.00367249757,8.54395
,,,0.00367251757,8.54395
,,,0.00367253757,8.60795
,,,0.00367255757,8.47995
,,,0.00367257757,8.60795
,,,0.00367259757,8.54395
,,,0.00367261757,8.54395
,,,0.00367263757,8.60795
,,,0.00367265757,8.54395
,,,0.00367267757,8.60795
,,,0.00367269757,8.60795
,,,0.00367271757,8.54395
,,,0.00367273757,8.47995
,,,0.00367275757,8.54395
,,,0.00367277757,8.54395
,,,0.00367279757,8.54395
,,,0.00367281757,8.47995
,,,0.00367283757,8.54395
,,,0.00367285757,8.54395
,,,0.00367287757,8.41595
,,,0.00367289757,8.54395
,,,0.00367291757,8.60795
,,,0.00367293757,8.60795
,,,0.00367295757,8.54395
,,,0.00367297757,8.47995
,,,0.00367299757,8.60795
,,,0.00367301757,8.41595
,,,0.00367303757,8.47995
,,,0.00367305757,8.47995
,,,0.00367307757,8.60795
,,,0.00367309757,8.54395
,,,0.00367311757,8.54395
,,,0.00367313757,8.54395
,,,0.00367315757,8.54395
,,,0.00367317757,8.47995
,,,0.00367319757,8.60795
,,,0.00367321757,8.60795
,,,0.00367323757,8.47995
,,,0.00367325757,8.54395
,,,0.00367327757,8.73594
,,,0.00367329757,8.67194
,,,0.00367331757,8.60795
,,,0.00367333757,8.54395
,,,0.00367335757,8.60795
,,,0.00367337757,8.54395
,,,0.00367339757,8.67194
,,,0.00367341757,8.67194
,,,0.00367343757,8.73594
,,,0.00367345757,8.60795
,,,0.00367347757,8.60795
,,,0.00367349757,8.60795
,,,0.00367351757,8.73594
,,,0.00367353757,8.60795
,,,0.00367355757,8.67194
,,,0.00367357757,8.60795
,,,0.00367359757,8.60795
,,,0.00367361757,8.60795
,,,0.00367363757,8.67194
,,,0.00367365757,8.60795
,,,0.00367367757,8.54395
,,,0.00367369757,8.60795
,,,0.00367371757,8.60795
,,,0.00367373757,8.54395
,,,0.00367375757,8.67194
,,,0.00367377757,8.60795
,,,0.00367379757,8.67194
,,,0.00367381757,8.60795
,,,0.00367383757,8.60795
,,,0.00367385757,8.67194
,,,0.00367387757,8.73594
,,,0.00367389757,8.60795
,,,0.00367391757,8.67194
,,,0.00367393757,8.73594
,,,0.00367395757,8.67194
,,,0.00367397757,8.67194
,,,0.00367399757,8.67194
,,,0.00367401757,8.60795
,,,0.00367403757,8.67194
,,,0.00367405757,8.67194
,,,0.00367407757,8.54395
,,,0.00367409757,8.67194
,,,0.00367411757,8.60795
,,,0.00367413757,8.60795
,,,0.00367415757,8.67194
,,,0.00367417757,8.73594
,,,0.00367419757,8.67194
,,,0.00367421757,8.67194
,,,0.00367423757,8.73594
,,,0.00367425757,8.67194
,,,0.00367427757,8.67194
,,,0.00367429757,8.73594
,,,0.00367431757,8.60795
,,,0.00367433757,8.67194
,,,0.00367435757,8.79994
,,,0.00367437757,8.67194
,,,0.00367439757,8.67194
,,,0.00367441757,8.73594
,,,0.00367443757,8.67194
,,,0.00367445757,8.60795
,,,0.00367447757,8.79994
,,,0.00367449757,8.73594
,,,0.00367451757,8.67194
,,,0.00367453757,8.67194
,,,0.00367455757,8.73594
,,,0.00367457757,8.67194
,,,0.00367459757,8.73594
,,,0.00367461757,8.67194
,,,0.00367463757,8.60795
,,,0.00367465757,8.67194
,,,0.00367467757,8.60795
,,,0.00367469757,8.60795
,,,0.00367471757,8.73594
,,,0.00367473757,8.67194
,,,0.00367475757,8.73594
,,,0.00367477757,8.73594
,,,0.00367479757,8.73594
,,,0.00367481757,8.67194
,,,0.00367483757,8.86394
,,,0.00367485757,8.60795
,,,0.00367487757,8.73594
,,,0.00367489757,8.79994
,,,0.00367491757,8.73594
,,,0.00367493757,8.86394
,,,0.00367495757,8.73594
,,,0.00367497757,8.73594
,,,0.00367499757,8.79994
,,,0.00367501757,8.67194
,,,0.00367503757,8.60795
,,,0.00367505757,8.67194
,,,0.00367507757,8.73594
,,,0.00367509757,8.73594
,,,0.00367511757,8.79994
,,,0.00367513757,8.67194
,,,0.00367515757,8.92793
,,,0.00367517757,8.73594
,,,0.00367519757,8.67194
,,,0.00367521757,8.67194
,,,0.00367523757,8.79994
,,,0.00367525757,8.79994
,,,0.00367527757,8.79994
,,,0.00367529757,8.67194
,,,0.00367531757,8.86394
,,,0.00367533757,8.73594
,,,0.00367535757,8.67194
,,,0.00367537757,8.73594
,,,0.00367539757,8.67194
,,,0.00367541757,8.79994
,,,0.00367543757,8.67194
,,,0.00367545757,8.73594
,,,0.00367547757,8.67194
,,,0.00367549757,8.73594
,,,0.00367551757,8.67194
,,,0.00367553757,8.73594
,,,0.00367555757,8.79994
,,,0.00367557757,8.73594
,,,0.00367559757,8.79994
,,,0.00367561757,8.86394
,,,0.00367563757,8.79994
,,,0.00367565757,8.67194
,,,0.00367567757,8.79994
,,,0.00367569757,8.73594
,,,0.00367571757,8.79994
,,,0.00367573757,8.73594
,,,0.00367575757,8.79994
,,,0.00367577757,8.67194
,,,0.00367579757,8.86394
,,,0.00367581757,8.73594
,,,0.00367583757,8.79994
,,,0.00367585757,8.86394
