data/C4_LP_heatpulse_00005.txt

"Record Length",10002,"Points",0.00365999257,0.795199
"Sample Interval",2e-008,s,0.00366001257,0.798399
"Trigger Point",-182999,"Samples",0.00366003257,0.798399
"Trigger Time",-0.628284,s,0.00366005257,0.791999
,,,0.00366007257,0.795199
"Horizontal Offset",0.00365999,s,0.00366009257,0.795199
,,,0.00366011257,0.791999
,,,0.00366013257,0.795199
,,,0.00366015257,0.801599
,,,0.00366017257,0.791999
,,,0.00366019257,0.798399
,,,0.00366021257,0.801599
,,,0.00366023257,0.791999
,,,0.00366025257,0.795199
,,,0.00366027257,0.801599
,,,0.00366029257,0.798399
,,,0.00366031257,0.798399
,,,0.00366033257,0.801599
,,,0.00366035257,0.795199
,,,0.00366037257,0.795199
,,,0.00366039257,0.804799
,,,0.00366041257,0.791999
,,,0.00366043257,0.791999
,,,0.00366045257,0.798399
,,,0.00366047257,0.791999
,,,0.00366049257,0.798399
,,,0.00366051257,0.798399
,,,0.00366053257,0.795199
,,,0.00366055257,0.791999
,,,0.00366057257,0.795199
,,,0.00366059257,0.791999
,,,0.00366061257,0.791999
,,,0.00366063257,0.795199
,,,0.00366065257,0.795199
,,,0.00366067257,0.791999
,,,0.00366069257,0.798399
,,,0.00366071257,0.791999
,,,0.00366073257,0.795199
,,,0.00366075257,0.795199
,,,0.00366077257,0.791999
,,,0.00366079257,0.795199
,,,0.00366081257,0.791999
,,,0.00366083257,0.791999
,,,0.00366085257,0.795199
,,,0.00366087257,0.791999
,,,0.00366089257,0.795199
,,,0.00366091257,0.791999
,,,0.00366093257,0.795199
,,,0.00366095257,0.795199
,,,0.00366097257,0.795199
,,,0.00366099257,0.801599
,,,0.00366101257,0.798399
,,,0.00366103257,0.798399
,,,0.00366105257,0.795199
,,,0.00366107257,0.801599
,,,0.00366109257,0.801599
,,,0.00366111257,0.795199
,,,0.00366113257,0.7888
,,,0.00366115257,0.798399
,,,0.00366117257,0.801599
,,,0.00366119257,0.791999
,,,0.00366121257,0.798399
,,,0.00366123257,0.798399
,,,0.00366125257,0.795199
,,,0.00366127257,0.791999
,,,0.00366129257,0.798399
,,,0.00366131257,0.801599
,,,0.00366133257,0.798399
,,,0.00366135257,0.801599
,,,0.00366137257,0.795199
,,,0.00366139257,0.795199
,,,0.00366141257,0.801599
,,,0.00366143257,0.791999
,,,0.00366145257,0.798399
,,,0.00366147257,0.798399
,,,0.00366149257,0.791999
,,,0.00366151257,0.798399
,,,0.00366153257,0.801599
,,,0.00366155257,0.795199
,,,0.00366157257,0.795199
,,,0.00366159257,0.801599
,,,0.00366161257,0.791999
,,,0.00366163257,0.795199
,,,0.00366165257,0.798399
,,,0.00366167257,0.795199
,,,0.00366169257,0.801599
,,,0.00366171257,0.804799
,,,0.00366173257,0.801599
,,,0.00366175257,0.795199
,,,0.00366177257,0.804799
,,,0.00366179257,0.795199
,,,0.00366181257,0.798399
,,,0.00366183257,0.798399
,,,0.00366185257,0.795199
,,,0.00366187257,0.801599
,,,0.00366189257,0.795199
,,,0.00366191257,0.7888
,,,0.00366193257,0.795199
,,,0.00366195257,0.801599
,,,0.00366197257,0.795199
,,,0.00366199257,0.798399
,,,0.00366201257,0.798399
,,,0.00366203257,0.798399
,,,0.00366205257,0.798399
,,,0.00366207257,0.795199
,,,0.00366209257,0.795199
,,,0.00366211257,0.791999
,,,0.00366213257,0.798399
,,,0.00366215257,0.791999
,,,0.00366217257,0.795199
,,,0.00366219257,0.798399
,,,0.00366221257,0.7888
,,,0.00366223257,0.795199
,,,0.00366225257,0.801599
,,,0.00366227257,0.791999
,,,0.00366229257,0.795199
,,,0.00366231257,0.795199
,,,0.00366233257,0.795199
,,,0.00366235257,0.798399
,,,0.00366237257,0.798399
,,,0.00366239257,0.798399
,,,0.00366241257,0.798399
,,,0.00366243257,0.798399
,,,0.00366245257,0.7888
,,,0.00366247257,0.795199
,,,0.00366249257,0.801599
,,,0.00366251257,0.7856
,,,0.00366253257,0.801599
,,,0.00366255257,0.791999
,,,0.00366257257,0.801599
,,,0.00366259257,0.798399
,,,0.00366261257,0.798399
,,,0.00366263257,0.795199
,,,0.00366265257,0.795199
,,,0.00366267257,0.801599
,,,0.00366269257,0.795199
,,,0.00366271257,0.798399
,,,0.00366273257,0.801599
,,,0.00366275257,0.798399
,,,0.00366277257,0.801599
,,,0.00366279257,0.798399
,,,0.00366281257,0.798399
,,,0.00366283257,0.791999
,,,0.00366285257,0.798399
,,,0.00366287257,0.795199
,,,0.00366289257,0.795199
,,,0.00366291257,0.798399
,,,0.00366293257,0.7888
,,,0.00366295257,0.795199
,,,0.00366297257,0.801599
,,,0.00366299257,0.795199
,,,0.00366301257,0.795199
,,,0.00366303257,0.801599
,,,0.00366305257,0.798399
,,,0.00366307257,0.798399
,,,0.00366309257,0.801599
,,,0.00366311257,0.795199
,,,0.00366313257,0.795199
,,,0.00366315257,0.801599
,,,0.00366317257,0.795199
,,,0.00366319257,0.795199
,,,0.00366321257,0.798399
,,,0.00366323257,0.791999
,,,0.00366325257,0.795199
,,,0.00366327257,0.801599
,,,0.00366329257,0.798399
,,,0.00366331257,0.795199
,,,0.00366333257,0.801599
,,,0.00366335257,0.798399
,,,0.00366337257,0.798399
,,,0.00366339257,0.801599
,,,0.00366341257,0.791999
,,,0.00366343257,0.795199
,,,0.00366345257,0.801599
,,,0.00366347257,0.798399
,,,0.00366349257,0.795199
,,,0.00366351257,0.804799
,,,0.00366353257,0.7888
,,,0.00366355257,0.798399
,,,0.00366357257,0.791999
,,,0.00366359257,0.798399
,,,0.00366361257,0.801599
,,,0.00366363257,0.801599
,,,0.00366365257,0.795199
,,,0.00366367257,0.798399
,,,0.00366369257,0.801599
,,,0.00366371257,0.795199
,,,0.00366373257,0.801599
,,,0.00366375257,0.801599
,,,0.00366377257,0.801599
,,,0.00366379257,0.791999
,,,0.00366381257,0.798399
,,,0.00366383257,0.795199
,,,0.00366385257,0.798399
,,,0.00366387257,0.801599
,,,0.00366389257,0.795199
,,,0.00366391257,0.798399
,,,0.00366393257,0.801599
,,,0.00366395257,0.798399
,,,0.00366397257,0.795199
,,,0.00366399257,0.798399
,,,0.00366401257,0.791999
,,,0.00366403257,0.801599
,,,0.00366405257,0.801599
,,,0.00366407257,0.801599
,,,0.00366409257,0.798399
,,,0.00366411257,0.798399
,,,0.00366413257,0.801599
,,,0.00366415257,0.795199
,,,0.00366417257,0.804799
,,,0.00366419257,0.795199
,,,0.00366421257,0.798399
,,,0.00366423257,0.804799
,,,0.00366425257,0.798399
,,,0.00366427257,0.801599
,,,0.00366429257,0.791999
,,,0.00366431257,0.798399
,,,0.00366433257,0.798399
,,,0.00366435257,0.798399
,,,0.00366437257,0.798399
,,,0.00366439257,0.795199
,,,0.00366441257,0.795199
,,,0.00366443257,0.795199
,,,0.00366445257,0.795199
,,,0.00366447257,0.795199
,,,0.00366449257,0.795199
,,,0.00366451257,0.795199
,,,0.00366453257,0.795199
,,,0.00366455257,0.795199
,,,0.00366457257,0.798399
,,,0.00366459257,0.798399
,,,0.00366461257,0.798399
,,,0.00366463257,0.795199
,,,0.00366465257,0.795199
,,,0.00366467257,0.801599
,,,0.00366469257,0.801599
,,,0.00366471257,0.801599
,,,0.00366473257,0.798399
,,,0.00366475257,0.795199
,,,0.00366477257,0.798399
,,,0.00366479257,0.795199
,,,0.00366481257,0.798399
,,,0.00366483257,0.801599
,,,0.00366485257,0.795199
,,,0.00366487257,0.798399
,,,0.00366489257,0.801599
,,,0.00366491257,0.801599
,,,0.00366493257,0.798399
,,,0.00366495257,0.795199
,,,0.00366497257,0.801599
,,,0.00366499257,0.795199
,,,0.00366501257,0.801599
,,,0.00366503257,0.795199
,,,0.00366505257,0.801599
,,,0.00366507257,0.801599
,,,0.00366509257,0.798399
,,,0.00366511257,0.795199
,,,0.00366513257,0.801599
,,,0.00366515257,0.798399
,,,0.00366517257,0.801599
,,,0.00366519257,0.798399
,,,0.00366521257,0.795199
,,,0.00366523257,0.801599
,,,0.00366525257,0.801599
,,,0.00366527257,0.801599
,,,0.00366529257,0.804799
,,,0.00366531257,0.801599
,,,0.00366533257,0.795199
,,,0.00366535257,0.798399
,,,0.00366537257,0.801599
,,,0.00366539257,0.801599
,,,0.00366541257,0.798399
,,,0.00366543257,0.798399
,,,0.00366545257,0.798399
,,,0.00366547257,0.791999
,,,0.00366549257,0.798399
,,,0.00366551257,0.798399
,,,0.00366553257,0.798399
,,,0.00366555257,0.804799
,,,0.00366557257,0.801599
,,,0.00366559257,0.795199
,,,0.00366561257,0.801599
,,,0.00366563257,0.798399
,,,0.00366565257,0.798399
,,,0.00366567257,0.804799
,,,0.00366569257,0.798399
,,,0.00366571257,0.795199
,,,0.00366573257,0.804799
,,,0.00366575257,0.798399
,,,0.00366577257,0.801599
,,,0.00366579257,0.801599
,,,0.00366581257,0.798399
,,,0.00366583257,0.801599
,,,0.00366585257,0.798399
,,,0.00366587257,0.795199
,,,0.00366589257,0.801599
,,,0.00366591257,0.798399
,,,0.00366593257,0.795199
,,,0.00366595257,0.798399
,,,0.00366597257,0.801599
,,,0.00366599257,0.798399
,,,0.00366601257,0.798399
,,,0.00366603257,0.801599
,,,0.00366605257,0.795199
,,,0.00366607257,0.798399
,,,0.00366609257,0.801599
,,,0.00366611257,0.795199
,,,0.00366613257,0.801599
,,,0.00366615257,0.801599
,,,0.00366617257,0.801599
,,,0.00366619257,0.801599
,,,0.00366621257,0.801599
,,,0.00366623257,0.795199
,,,0.00366625257,0.798399
,,,0.00366627257,0.798399
,,,0.00366629257,0.798399
,,,0.00366631257,0.798399
,,,0.00366633257,0.795199
,,,0.00366635257,0.795199
,,,0.00366637257,0.798399
,,,0.00366639257,0.804799
,,,0.00366641257,0.807999
,,,0.00366643257,0.798399
,,,0.00366645257,0.801599
,,,0.00366647257,0.798399
,,,0.00366649257,0.798399
,,,0.00366651257,0.804799
,,,0.00366653257,0.798399
,,,0.00366655257,0.798399
,,,0.00366657257,0.798399
,,,0.00366659257,0.795199
,,,0.00366661257,0.798399
,,,0.00366663257,0.801599
,,,0.00366665257,0.801599
,,,0.00366667257,0.801599
,,,0.00366669257,0.801599
,,,0.00366671257,0.798399
,,,0.00366673257,0.801599
,,,0.00366675257,0.804799
,,,0.00366677257,0.798399
,,,0.00366679257,0.801599
,,,0.00366681257,0.798399
,,,0.00366683257,0.798399
,,,0.00366685257,0.801599
,,,0.00366687257,0.801599
,,,0.00366689257,0.791999
,,,0.00366691257,0.798399
,,,0.00366693257,0.801599
,,,0.00366695257,0.798399
,,,0.00366697257,0.798399
,,,0.00366699257,0.804799
,,,0.00366701257,0.798399
,,,0.00366703257,0.798399
,,,0.00366705257,0.801599
,,,0.00366707257,0.795199
,,,0.00366709257,0.798399
,,,0.00366711257,0.801599
,,,0.00366713257,0.801599
,,,0.00366715257,0.798399
,,,0.00366717257,0.804799
,,,0.00366719257,0.801599
,,,0.00366721257,0.801599
,,,0.00366723257,0.798399
,,,0.00366725257,0.795199
,,,0.00366727257,0.795199
,,,0.00366729257,0.804799
,,,0.00366731257,0.801599
,,,0.00366733257,0.807999
,,,0.00366735257,0.795199
,,,0.00366737257,0.798399
,,,0.00366739257,0.798399
,,,0.00366741257,0.798399
,,,0.00366743257,0.798399
,,,0.00366745257,0.795199
,,,0.00366747257,0.801599
,,,0.00366749257,0.795199
,,,0.00366751257,0.798399
,,,0.00366753257,0.801599
,,,0.00366755257,0.798399
,,,0.00366757257,0.795199
,,,0.00366759257,0.798399
,,,0.00366761257,0.801599
,,,0.00366763257,0.798399
,,,0.00366765257,0.804799
,,,0.00366767257,0.801599
,,,0.00366769257,0.798399
,,,0.00366771257,0.804799
,,,0.00366773257,0.804799
,,,0.00366775257,0.795199
,,,0.00366777257,0.801599
,,,0.00366779257,0.795199
,,,0.00366781257,0.795199
,,,0.00366783257,0.798399
,,,0.00366785257,0.801599
,,,0.00366787257,0.795199
,,,0.00366789257,0.804799
,,,0.00366791257,0.791999
,,,0.00366793257,0.798399
,,,0.00366795257,0.798399
,,,0.00366797257,0.801599
,,,0.00366799257,0.795199
,,,0.00366801257,0.801599
,,,0.00366803257,0.801599
,,,0.00366805257,0.804799
,,,0.00366807257,0.801599
,,,0.00366809257,0.804799
,,,0.00366811257,0.798399
,,,0.00366813257,0.801599
,,,0.00366815257,0.798399
,,,0.00366817257,0.798399
,,,0.00366819257,0.798399
,,,0.00366821257,0.801599
,,,0.00366823257,0.795199
,,,0.00366825257,0.798399
,,,0.00366827257,0.798399
,,,0.00366829257,0.798399
,,,0.00366831257,0.801599
,,,0.00366833257,0.801599
,,,0.00366835257,0.798399
,,,0.00366837257,0.801599
,,,0.00366839257,0.798399
,,,0.00366841257,0.798399
,,,0.00366843257,0.804799
,,,0.00366845257,0.798399
,,,0.00366847257,0.798399
,,,0.00366849257,0.804799
,,,0.00366851257,0.801599
,,,0.00366853257,0.804799
,,,0.00366855257,0.801599
,,,0.00366857257,0.798399
,,,0.00366859257,0.798399
,,,0.00366861257,0.804799
,,,0.00366863257,0.795199
,,,0.00366865257,0.798399
,,,0.00366867257,0.798399
,,,0.00366869257,0.801599
,,,0.00366871257,0.798399
,,,0.00366873257,0.801599
,,,0.00366875257,0.798399
,,,0.00366877257,0.798399
,,,0.00366879257,0.804799
,,,0.00366881257,0.795199
,,,0.00366883257,0.801599
,,,0.00366885257,0.798399
,,,0.00366887257,0.801599
,,,0.00366889257,0.798399
,,,0.00366891257,0.804799
,,,0.00366893257,0.798399
,,,0.00366895257,0.801599
,,,0.00366897257,0.798399
,,,0.00366899257,0.804799
,,,0.00366901257,0.795199
,,,0.00366903257,0.801599
,,,0.00366905257,0.798399
,,,0.00366907257,0.798399
,,,0.00366909257,0.798399
,,,0.00366911257,0.801599
,,,0.00366913257,0.798399
,,,0.00366915257,0.801599
,,,0.00366917257,0.801599
,,,0.00366919257,0.798399
,,,0.00366921257,0.801599
,,,0.00366923257,0.798399
,,,0.00366925257,0.801599
,,,0.00366927257,0.804799
,,,0.00366929257,0.791999
,,,0.00366931257,0.798399
,,,0.00366933257,0.801599
,,,0.00366935257,0.798399
,,,0.00366937257,0.798399
,,,0.00366939257,0.804799
,,,0.00366941257,0.798399
,,,0.00366943257,0.798399
,,,0.00366945257,0.804799
,,,0.00366947257,0.795199
,,,0.00366949257,0.795199
,,,0.00366951257,0.807999
,,,0.00366953257,0.801599
,,,0.00366955257,0.798399
,,,0.00366957257,0.795199
,,,0.00366959257,0.798399
,,,0.00366961257,0.801599
,,,0.00366963257,0.804799
,,,0.00366965257,0.801599
,,,0.00366967257,0.798399
,,,0.00366969257,0.801599
,,,0.00366971257,0.798399
,,,0.00366973257,0.798399
,,,0.00366975257,0.801599
,,,0.00366977257,0.798399
,,,0.00366979257,0.795199
,,,0.00366981257,0.798399
,,,0.00366983257,0.795199
,,,0.00366985257,0.795199
,,,0.00366987257,0.798399
,,,0.00366989257,0.801599
,,,0.00366991257,0.798399
,,,0.00366993257,0.798399
,,,0.00366995257,0.798399
,,,0.00366997257,0.798399
,,,0.00366999257,0.801599
,,,0.00367001257,0.801599
,,,0.00367003257,0.798399
,,,0.00367005257,0.804799
,,,0.00367007257,0.801599
,,,0.00367009257,0.795199
,,,0.00367011257,0.804799
,,,0.00367013257,0.804799
,,,0.00367015257,0.798399
,,,0.00367017257,0.801599
,,,0.00367019257,0.798399
,,,0.00367021257,0.801599
,,,0.00367023257,0.807999
,,,0.00367025257,0.798399
,,,0.00367027257,0.801599
,,,0.00367029257,0.801599
,,,0.00367031257,0.798399
,,,0.00367033257,0.795199
,,,0.00367035257,0.801599
,,,0.00367037257,0.798399
,,,0.00367039257,0.798399
,,,0.00367041257,0.804799
,,,0.00367043257,0.801599
,,,0.00367045257,0.804799
,,,0.00367047257,0.798399
,,,0.00367049257,0.791999
,,,0.00367051257,0.801599
,,,0.00367053257,0.801599
,,,0.00367055257,0.801599
,,,0.00367057257,0.801599
,,,0.00367059257,0.804799
,,,0.00367061257,0.804799
,,,0.00367063257,0.798399
,,,0.00367065257,0.798399
,,,0.00367067257,0.798399
,,,0.00367069257,0.804799
,,,0.00367071257,0.804799
,,,0.00367073257,0.798399
,,,0.00367075257,0.801599
,,,0.00367077257,0.801599
,,,0.00367079257,0.801599
,,,0.00367081257,0.801599
,,,0.00367083257,0.801599
,,,0.00367085257,0.804799
,,,0.00367087257,0.798399
,,,0.00367089257,0.801599
,,,0.00367091257,0.804799
,,,0.00367093257,0.795199
,,,0.00367095257,0.801599
,,,0.00367097257,0.795199
,,,0.00367099257,0.798399
,,,0.00367101257,0.804799
,,,0.00367103257,0.798399
,,,0.00367105257,0.798399
,,,0.00367107257,0.801599
,,,0.00367109257,0.807999
,,,0.00367111257,0.798399
,,,0.00367113257,0.804799
,,,0.00367115257,0.798399
,,,0.00367117257,0.801599
,,,0.00367119257,0.804799
,,,0.00367121257,0.798399
,,,0.00367123257,0.801599
,,,0.00367125257,0.807999
,,,0.00367127257,0.798399
,,,0.00367129257,0.798399
,,,0.00367131257,0.801599
,,,0.00367133257,0.795199
,,,0.00367135257,0.798399
,,,0.00367137257,0.804799
,,,0.00367139257,0.795199
,,,0.00367141257,0.795199
,,,0.00367143257,0.801599
,,,0.00367145257,0.795199
,,,0.00367147257,0.798399
,,,0.00367149257,0.804799
,,,0.00367151257,0.798399
,,,0.00367153257,0.804799
,,,0.00367155257,0.804799
,,,0.00367157257,0.795199
,,,0.00367159257,0.795199
,,,0.00367161257,0.804799
,,,0.00367163257,0.798399
,,,0.00367165257,0.801599
,,,0.00367167257,0.804799
,,,0.00367169257,0.795199
,,,0.00367171257,0.801599
,,,0.00367173257,0.804799
,,,0.00367175257,0.798399
,,,0.00367177257,0.798399
,,,0.00367179257,0.801599
,,,0.00367181257,0.795199
,,,0.00367183257,0.801599
,,,0.00367185257,0.798399
,,,0.00367187257,0.804799
,,,0.00367189257,0.798399
,,,0.00367191257,0.798399
,,,0.00367193257,0.795199
,,,0.00367195257,0.798399
,,,0.00367197257,0.804799
,,,0.00367199257,0.801599
,,,0.00367201257,0.798399
,,,0.00367203257,0.795199
,,,0.00367205257,0.798399
,,,0.00367207257,0.801599
,,,0.00367209257,0.804799
,,,0.00367211257,0.798399
,,,0.00367213257,0.798399
,,,0.00367215257,0.801599
,,,0.00367217257,0.795199
,,,0.00367219257,0.801599
,,,0.00367221257,0.804799
,,,0.00367223257,0.798399
,,,0.00367225257,0.798399
,,,0.00367227257,0.801599
,,,0.00367229257,0.791999
,,,0.00367231257,0.801599
,,,0.00367233257,0.798399
,,,0.00367235257,0.801599
,,,0.00367237257,0.798399
,,,0.00367239257,0.801599
,,,0.00367241257,0.801599
,,,0.00367243257,0.798399
,,,0.00367245257,0.801599
,,,0.00367247257,0.791999
,,,0.00367249257,0.801599
,,,0.00367251257,0.804799
,,,0.00367253257,0.801599
,,,0.00367255257,0.801599
,,,0.00367257257,0.804799
,,,0.00367259257,0.801599
,,,0.00367261257,0.804799
,,,0.00367263257,0.801599
,,,0.00367265257,0.795199
,,,0.00367267257,0.798399
,,,0.00367269257,0.804799
,,,0.00367271257,0.801599
,,,0.00367273257,0.798399
,,,0.00367275257,0.804799
,,,0.00367277257,0.801599
,,,0.00367279257,0.804799
,,,0.00367281257,0.804799
,,,0.00367283257,0.798399
,,,0.00367285257,0.801599
,,,0.00367287257,0.798399
,,,0.00367289257,0.801599
,,,0.00367291257,0.798399
,,,0.00367293257,0.801599
,,,0.00367295257,0.795199
,,,0.00367297257,0.798399
,,,0.00367299257,0.801599
,,,0.00367301257,0.801599
,,,0.00367303257,0.804799
,,,0.00367305257,0.798399
,,,0.00367307257,0.804799
,,,0.00367309257,0.798399
,,,0.00367311257,0.798399
,,,0.00367313257,0.801599
,,,0.00367315257,0.795199
,,,0.00367317257,0.801599
,,,0.00367319257,0.795199
,,,0.00367321257,0.804799
,,,0.00367323257,0.801599
,,,0.00367325257,0.795199
,,,0.00367327257,0.798399
,,,0.00367329257,0.804799
,,,0.00367331257,0.801599
,,,0.00367333257,0.798399
,,,0.00367335257,0.804799
,,,0.00367337257,0.801599
,,,0.00367339257,0.801599
,,,0.00367341257,0.798399
,,,0.00367343257,0.801599
,,,0.00367345257,0.798399
,,,0.00367347257,0.801599
,,,0.00367349257,0.798399
,,,0.00367351257,0.795199
,,,0.00367353257,0.801599
,,,0.00367355257,0.795199
,,,0.00367357257,0.791999
,,,0.00367359257,0.804799
,,,0.00367361257,0.798399
,,,0.00367363257,0.801599
,,,0.00367365257,0.801599
,,,0.00367367257,0.801599
,,,0.00367369257,0.801599
,,,0.00367371257,0.798399
,,,0.00367373257,0.804799
,,,0.00367375257,0.798399
,,,0.00367377257,0.804799
,,,0.00367379257,0.798399
,,,0.00367381257,0.795199
,,,0.00367383257,0.801599
,,,0.00367385257,0.798399
,,,0.00367387257,0.801599
,,,0.00367389257,0.804799
,,,0.00367391257,0.798399
,,,0.00367393257,0.798399
,,,0.00367395257,0.804799
,,,0.00367397257,0.801599
,,,0.00367399257,0.798399
,,,0.00367401257,0.804799
,,,0.00367403257,0.798399
,,,0.00367405257,0.807999
,,,0.00367407257,0.804799
,,,0.00367409257,0.804799
,,,0.00367411257,0.801599
,,,0.00367413257,0.804799
,,,0.00367415257,0.804799
,,,0.00367417257,0.798399
,,,0.00367419257,0.804799
,,,0.00367421257,0.804799
,,,0.00367423257,0.795199
,,,0.00367425257,0.801599
,,,0.00367427257,0.801599
,,,0.00367429257,0.804799
,,,0.00367431257,0.804799
,,,0.00367433257,0.791999
,,,0.00367435257,0.804799
,,,0.00367437257,0.798399
,,,0.00367439257,0.795199
,,,0.00367441257,0.798399
,,,0.00367443257,0.798399
,,,0.00367445257,0.804799
,,,0.00367447257,0.801599
,,,0.00367449257,0.795199
,,,0.00367451257,0.7888
,,,0.00367453257,0.801599
,,,0.00367455257,0.801599
,,,0.00367457257,0.795199
,,,0.00367459257,0.804799
,,,0.00367461257,0.804799
,,,0.00367463257,0.804799
,,,0.00367465257,0.798399
,,,0.00367467257,0.804799
,,,0.00367469257,0.801599
,,,0.00367471257,0.795199
,,,0.00367473257,0.801599
,,,0.00367475257,0.801599
,,,0.00367477257,0.795199
,,,0.00367479257,0.804799
,,,0.00367481257,0.798399
,,,0.00367483257,0.795199
,,,0.00367485257,0.801599
,,,0.00367487257,0.795199
,,,0.00367489257,0.795199
,,,0.00367491257,0.801599
,,,0.00367493257,0.795199
,,,0.00367495257,0.798399
,,,0.00367497257,0.804799
,,,0.00367499257,0.798399
,,,0.00367501257,0.804799
,,,0.00367503257,0.798399
,,,0.00367505257,0.798399
,,,0.00367507257,0.798399
,,,0.00367509257,0.801599
,,,0.00367511257,0.801599
,,,0.00367513257,0.798399
,,,0.00367515257,0.804799
,,,0.00367517257,0.798399
,,,0.00367519257,0.798399
,,,0.00367521257,0.801599
,,,0.00367523257,0.801599
,,,0.00367525257,0.795199
